   5
# data nr     1  (natoms,nloc)=    1    4
C      0.00000000      0.00000000      0.00000000
X     -0.00000000     -0.00000000      0.00000000
X      0.16514309      0.21809901      0.37571390
X     -0.45327337      0.02112930     -0.10048469
X      0.28813028     -0.23922831     -0.27522921
   5
# data nr     2  (natoms,nloc)=    1    4
C      0.00000000      0.00000000      0.00000000
X     -0.00000000     -0.00000000      0.00000000
X      0.27370420      0.36147208      0.62269922
X     -0.75124362      0.03501916     -0.16654074
X      0.47753998     -0.39649107     -0.45615807
   5
# data nr     3  (natoms,nloc)=    1    4
C      0.00000000      0.00000000      0.00000000
X     -0.00000000     -0.00000000      0.00000000
X      0.27273853      0.36019674      0.62050223
X     -0.74859323      0.03489561     -0.16595318
X      0.47585518     -0.39509221     -0.45454870
   5
# data nr     4  (natoms,nloc)=    1    4
C      0.00000000      0.00000000      0.00000000
X     -0.00000000     -0.00000000      0.00000000
X      0.26887583      0.35509540      0.61171428
X     -0.73799169      0.03440142     -0.16360296
X      0.46911597     -0.38949680     -0.44811124
   5
# data nr     5  (natoms,nloc)=    1    4
C      0.00000000      0.00000000      0.00000000
X     -0.00000000     -0.00000000      0.00000000
X      0.27193145      0.35913087      0.61866608
X     -0.74637815      0.03479235     -0.16546213
X      0.47444709     -0.39392311     -0.45320366
   5
# data nr     6  (natoms,nloc)=    1    4
C      0.00000000      0.00000000      0.00000000
X     -0.00000000     -0.00000000      0.00000000
X      0.27129654      0.35829236      0.61722160
X     -0.74463557      0.03471112     -0.16507582
X      0.47333936     -0.39300339     -0.45214553
   5
# data nr     7  (natoms,nloc)=    1    4
C      0.00000000      0.00000000      0.00000000
X     -0.00000000     -0.00000000      0.00000000
X      0.27079587      0.35763113      0.61608253
X     -0.74326142      0.03464707     -0.16477119
X      0.47246584     -0.39227812     -0.45131113
   5
# data nr     8  (natoms,nloc)=    1    4
C      0.00000000      0.00000000      0.00000000
X     -0.00000000     -0.00000000      0.00000000
X      0.27119131      0.35815337      0.61698218
X     -0.74434674      0.03469766     -0.16501179
X      0.47315576     -0.39285094     -0.45197015
   5
# data nr     9  (natoms,nloc)=    1    4
C      0.00000000      0.00000000      0.00000000
X     -0.00000000     -0.00000000      0.00000000
X      0.27129654      0.35829236      0.61722160
X     -0.74463557      0.03471112     -0.16507582
X      0.47333936     -0.39300339     -0.45214553
   5
# data nr    10  (natoms,nloc)=    1    4
C      0.00000000      0.00000000      0.00000000
X     -0.00000000     -0.00000000      0.00000000
X      0.27032506      0.35700936      0.61501141
X     -0.74196921      0.03458683     -0.16448473
X      0.47164442     -0.39159611     -0.45052648
   5
# data nr    11  (natoms,nloc)=    1    4
C      0.00000000      0.00000000      0.00000000
X     -0.00000000     -0.00000000      0.00000000
X      0.27109316      0.35802376      0.61675890
X     -0.74407737      0.03468510     -0.16495208
X      0.47298453     -0.39270877     -0.45180659
   5
# data nr    12  (natoms,nloc)=    1    4
C      0.00000000      0.00000000      0.00000000
X     -0.00000000     -0.00000000      0.00000000
X      0.27125368      0.35823574      0.61712407
X     -0.74451791      0.03470564     -0.16504974
X      0.47326457     -0.39294129     -0.45207409
   5
# data nr    13  (natoms,nloc)=    1    4
C      0.00000000      0.00000000      0.00000000
X     -0.00000000     -0.00000000      0.00000000
X      0.27128751      0.35828043      0.61720105
X     -0.74461078      0.03470997     -0.16507033
X      0.47332360     -0.39299030     -0.45213048
   5
# data nr    14  (natoms,nloc)=    1    4
C      0.00000000      0.00000000      0.00000000
X     -0.00000000     -0.00000000      0.00000000
X      0.27129468      0.35828989      0.61721736
X     -0.74463045      0.03471089     -0.16507469
X      0.47333611     -0.39300068     -0.45214242
   5
# data nr    15  (natoms,nloc)=    1    4
C      0.00000000      0.00000000      0.00000000
X     -0.00000000     -0.00000000      0.00000000
X      0.27129617      0.35829186      0.61722075
X     -0.74463454      0.03471108     -0.16507560
X      0.47333871     -0.39300285     -0.45214491
   5
# data nr    16  (natoms,nloc)=    1    4
C      0.00000000      0.00000000      0.00000000
X     -0.00000000     -0.00000000      0.00000000
X      0.27129649      0.35829229      0.61722148
X     -0.74463543      0.03471112     -0.16507579
X      0.47333928     -0.39300331     -0.45214545
   5
# data nr    17  (natoms,nloc)=    1    4
C      0.00000000      0.00000000      0.00000000
X     -0.00000000     -0.00000000      0.00000000
X      0.27129654      0.35829235      0.61722159
X     -0.74463556      0.03471112     -0.16507582
X      0.47333936     -0.39300338     -0.45214553
   5
# data nr    18  (natoms,nloc)=    1    4
C      0.00000000      0.00000000      0.00000000
X     -0.00000000     -0.00000000      0.00000000
X      0.27129654      0.35829235      0.61722159
X     -0.74463556      0.03471112     -0.16507582
X      0.47333936     -0.39300338     -0.45214553
   5
# data nr    19  (natoms,nloc)=    1    4
C      0.00000000      0.00000000      0.00000000
X     -0.00000000     -0.00000000      0.00000000
X      0.27129654      0.35829235      0.61722159
X     -0.74463556      0.03471112     -0.16507582
X      0.47333936     -0.39300338     -0.45214553
   5
# data nr    20  (natoms,nloc)=    1    4
C      0.00000000      0.00000000      0.00000000
X      0.00000000      0.00000000     -0.00000000
X      0.24508365      0.32366698      0.55758570
X     -0.67526868      0.03147880     -0.14970007
X      0.42670774     -0.35430687     -0.40759733
   5
# data nr     1  (natoms,nloc)=    1    4
C      0.00000000      0.00000000      0.00000000
X     -0.00000000     -0.00000000      0.00000000
X      0.16514309      0.21809901      0.37571390
X     -0.45327337      0.02112930     -0.10048469
X      0.28813028     -0.23922831     -0.27522921
   5
# data nr     2  (natoms,nloc)=    1    4
C      0.00000000      0.00000000      0.00000000
X     -0.00000000     -0.00000000      0.00000000
X      0.27370420      0.36147208      0.62269922
X     -0.75124362      0.03501916     -0.16654074
X      0.47753998     -0.39649107     -0.45615807
   5
# data nr     3  (natoms,nloc)=    1    4
C      0.00000000      0.00000000      0.00000000
X     -0.00000000     -0.00000000      0.00000000
X      0.27273853      0.36019674      0.62050223
X     -0.74859323      0.03489561     -0.16595318
X      0.47585518     -0.39509221     -0.45454870
   5
# data nr     4  (natoms,nloc)=    1    4
C      0.00000000      0.00000000      0.00000000
X     -0.00000000     -0.00000000      0.00000000
X      0.26887583      0.35509540      0.61171428
X     -0.73799169      0.03440142     -0.16360296
X      0.46911597     -0.38949680     -0.44811124
   5
# data nr     5  (natoms,nloc)=    1    4
C      0.00000000      0.00000000      0.00000000
X     -0.00000000     -0.00000000      0.00000000
X      0.27193145      0.35913087      0.61866608
X     -0.74637815      0.03479235     -0.16546213
X      0.47444709     -0.39392311     -0.45320366
   5
# data nr     6  (natoms,nloc)=    1    4
C      0.00000000      0.00000000      0.00000000
X     -0.00000000     -0.00000000      0.00000000
X      0.27129654      0.35829236      0.61722160
X     -0.74463557      0.03471112     -0.16507582
X      0.47333936     -0.39300339     -0.45214553
   5
# data nr     7  (natoms,nloc)=    1    4
C      0.00000000      0.00000000      0.00000000
X     -0.00000000     -0.00000000      0.00000000
X      0.27079587      0.35763113      0.61608253
X     -0.74326142      0.03464707     -0.16477119
X      0.47246584     -0.39227812     -0.45131113
   5
# data nr     8  (natoms,nloc)=    1    4
C      0.00000000      0.00000000      0.00000000
X     -0.00000000     -0.00000000      0.00000000
X      0.27119131      0.35815337      0.61698218
X     -0.74434674      0.03469766     -0.16501179
X      0.47315576     -0.39285094     -0.45197015
   5
# data nr     9  (natoms,nloc)=    1    4
C      0.00000000      0.00000000      0.00000000
X     -0.00000000     -0.00000000      0.00000000
X      0.27129654      0.35829236      0.61722160
X     -0.74463557      0.03471112     -0.16507582
X      0.47333936     -0.39300339     -0.45214553
   5
# data nr    10  (natoms,nloc)=    1    4
C      0.00000000      0.00000000      0.00000000
X     -0.00000000     -0.00000000      0.00000000
X      0.27032506      0.35700936      0.61501141
X     -0.74196921      0.03458683     -0.16448473
X      0.47164442     -0.39159611     -0.45052648
   5
# data nr    11  (natoms,nloc)=    1    4
C      0.00000000      0.00000000      0.00000000
X     -0.00000000     -0.00000000      0.00000000
X      0.27109316      0.35802376      0.61675890
X     -0.74407737      0.03468510     -0.16495208
X      0.47298453     -0.39270877     -0.45180659
   5
# data nr    12  (natoms,nloc)=    1    4
C      0.00000000      0.00000000      0.00000000
X     -0.00000000     -0.00000000      0.00000000
X      0.27125368      0.35823574      0.61712407
X     -0.74451791      0.03470564     -0.16504974
X      0.47326457     -0.39294129     -0.45207409
   5
# data nr    13  (natoms,nloc)=    1    4
C      0.00000000      0.00000000      0.00000000
X     -0.00000000     -0.00000000      0.00000000
X      0.27128751      0.35828043      0.61720105
X     -0.74461078      0.03470997     -0.16507033
X      0.47332360     -0.39299030     -0.45213048
   5
# data nr    14  (natoms,nloc)=    1    4
C      0.00000000      0.00000000      0.00000000
X     -0.00000000     -0.00000000      0.00000000
X      0.27129468      0.35828989      0.61721736
X     -0.74463045      0.03471089     -0.16507469
X      0.47333611     -0.39300068     -0.45214242
   5
# data nr    15  (natoms,nloc)=    1    4
C      0.00000000      0.00000000      0.00000000
X     -0.00000000     -0.00000000      0.00000000
X      0.27129617      0.35829186      0.61722075
X     -0.74463454      0.03471108     -0.16507560
X      0.47333871     -0.39300285     -0.45214491
   5
# data nr    16  (natoms,nloc)=    1    4
C      0.00000000      0.00000000      0.00000000
X     -0.00000000     -0.00000000      0.00000000
X      0.27129649      0.35829229      0.61722148
X     -0.74463543      0.03471112     -0.16507579
X      0.47333928     -0.39300331     -0.45214545
   5
# data nr    17  (natoms,nloc)=    1    4
C      0.00000000      0.00000000      0.00000000
X     -0.00000000     -0.00000000      0.00000000
X      0.27129654      0.35829235      0.61722159
X     -0.74463556      0.03471112     -0.16507582
X      0.47333936     -0.39300338     -0.45214553
   5
# data nr    18  (natoms,nloc)=    1    4
C      0.00000000      0.00000000      0.00000000
X     -0.00000000     -0.00000000      0.00000000
X      0.27129654      0.35829235      0.61722159
X     -0.74463556      0.03471112     -0.16507582
X      0.47333936     -0.39300338     -0.45214553
   5
# data nr    19  (natoms,nloc)=    1    4
C      0.00000000      0.00000000      0.00000000
X     -0.00000000     -0.00000000      0.00000000
X      0.27129654      0.35829235      0.61722159
X     -0.74463556      0.03471112     -0.16507582
X      0.47333936     -0.39300338     -0.45214553
   5
# data nr    20  (natoms,nloc)=    1    4
C      0.00000000      0.00000000      0.00000000
X      0.00000000      0.00000000     -0.00000000
X      0.24508365      0.32366698      0.55758570
X     -0.67526868      0.03147880     -0.14970007
X      0.42670774     -0.35430687     -0.40759733
   5
# data nr     1  (natoms,nloc)=    1    4
C      0.00000000      0.00000000      0.00000000
X     -0.00000000     -0.00000000      0.00000000
X      0.16514309      0.21809901      0.37571390
X     -0.45327337      0.02112930     -0.10048469
X      0.28813028     -0.23922831     -0.27522921
   5
# data nr     2  (natoms,nloc)=    1    4
C      0.00000000      0.00000000      0.00000000
X     -0.00000000     -0.00000000      0.00000000
X      0.27370425      0.36147215      0.62269932
X     -0.75124352      0.03501916     -0.16654072
X      0.47753996     -0.39649106     -0.45615804
   5
# data nr     1  (natoms,nloc)=    1    4
C      0.00000000      0.00000000      0.00000000
X     -0.00000000     -0.00000000      0.00000000
X      0.16514309      0.21809901      0.37571390
X     -0.45327337      0.02112930     -0.10048469
X      0.28813028     -0.23922831     -0.27522921
   5
# data nr     2  (natoms,nloc)=    1    4
C      0.00000000      0.00000000      0.00000000
X     -0.00000000     -0.00000000      0.00000000
X      0.27370420      0.36147208      0.62269922
X     -0.75124362      0.03501916     -0.16654074
X      0.47753998     -0.39649107     -0.45615807
   5
# data nr     3  (natoms,nloc)=    1    4
C      0.00000000      0.00000000      0.00000000
X     -0.00000000     -0.00000000      0.00000000
X      0.27273853      0.36019674      0.62050223
X     -0.74859323      0.03489561     -0.16595318
X      0.47585518     -0.39509221     -0.45454870
   5
# data nr     4  (natoms,nloc)=    1    4
C      0.00000000      0.00000000      0.00000000
X     -0.00000000     -0.00000000      0.00000000
X      0.26887583      0.35509540      0.61171428
X     -0.73799169      0.03440142     -0.16360296
X      0.46911597     -0.38949680     -0.44811124
   5
# data nr     5  (natoms,nloc)=    1    4
C      0.00000000      0.00000000      0.00000000
X     -0.00000000     -0.00000000      0.00000000
X      0.27193145      0.35913087      0.61866608
X     -0.74637815      0.03479235     -0.16546213
X      0.47444709     -0.39392311     -0.45320366
   5
# data nr     6  (natoms,nloc)=    1    4
C      0.00000000      0.00000000      0.00000000
X     -0.00000000     -0.00000000      0.00000000
X      0.27129654      0.35829236      0.61722160
X     -0.74463557      0.03471112     -0.16507582
X      0.47333936     -0.39300339     -0.45214553
   5
# data nr     7  (natoms,nloc)=    1    4
C      0.00000000      0.00000000      0.00000000
X     -0.00000000     -0.00000000      0.00000000
X      0.27079587      0.35763113      0.61608253
X     -0.74326142      0.03464707     -0.16477119
X      0.47246584     -0.39227812     -0.45131113
   5
# data nr     8  (natoms,nloc)=    1    4
C      0.00000000      0.00000000      0.00000000
X     -0.00000000     -0.00000000      0.00000000
X      0.27119131      0.35815337      0.61698218
X     -0.74434674      0.03469766     -0.16501179
X      0.47315576     -0.39285094     -0.45197015
   5
# data nr     9  (natoms,nloc)=    1    4
C      0.00000000      0.00000000      0.00000000
X     -0.00000000     -0.00000000      0.00000000
X      0.27129654      0.35829236      0.61722160
X     -0.74463557      0.03471112     -0.16507582
X      0.47333936     -0.39300339     -0.45214553
   5
# data nr    10  (natoms,nloc)=    1    4
C      0.00000000      0.00000000      0.00000000
X     -0.00000000     -0.00000000      0.00000000
X      0.27032506      0.35700936      0.61501141
X     -0.74196921      0.03458683     -0.16448473
X      0.47164442     -0.39159611     -0.45052648
   5
# data nr    11  (natoms,nloc)=    1    4
C      0.00000000      0.00000000      0.00000000
X     -0.00000000     -0.00000000      0.00000000
X      0.27109316      0.35802376      0.61675890
X     -0.74407737      0.03468510     -0.16495208
X      0.47298453     -0.39270877     -0.45180659
   5
# data nr    12  (natoms,nloc)=    1    4
C      0.00000000      0.00000000      0.00000000
X     -0.00000000     -0.00000000      0.00000000
X      0.27125368      0.35823574      0.61712407
X     -0.74451791      0.03470564     -0.16504974
X      0.47326457     -0.39294129     -0.45207409
   5
# data nr    13  (natoms,nloc)=    1    4
C      0.00000000      0.00000000      0.00000000
X     -0.00000000     -0.00000000      0.00000000
X      0.27128751      0.35828043      0.61720105
X     -0.74461078      0.03470997     -0.16507033
X      0.47332360     -0.39299030     -0.45213048
   5
# data nr    14  (natoms,nloc)=    1    4
C      0.00000000      0.00000000      0.00000000
X     -0.00000000     -0.00000000      0.00000000
X      0.27129468      0.35828989      0.61721736
X     -0.74463045      0.03471089     -0.16507469
X      0.47333611     -0.39300068     -0.45214242
   5
# data nr    15  (natoms,nloc)=    1    4
C      0.00000000      0.00000000      0.00000000
X     -0.00000000     -0.00000000      0.00000000
X      0.27129617      0.35829186      0.61722075
X     -0.74463454      0.03471108     -0.16507560
X      0.47333871     -0.39300285     -0.45214491
   5
# data nr    16  (natoms,nloc)=    1    4
C      0.00000000      0.00000000      0.00000000
X     -0.00000000     -0.00000000      0.00000000
X      0.27129649      0.35829229      0.61722148
X     -0.74463543      0.03471112     -0.16507579
X      0.47333928     -0.39300331     -0.45214545
   5
# data nr    17  (natoms,nloc)=    1    4
C      0.00000000      0.00000000      0.00000000
X     -0.00000000     -0.00000000      0.00000000
X      0.27129654      0.35829235      0.61722159
X     -0.74463556      0.03471112     -0.16507582
X      0.47333936     -0.39300338     -0.45214553
   5
# data nr    18  (natoms,nloc)=    1    4
C      0.00000000      0.00000000      0.00000000
X     -0.00000000     -0.00000000      0.00000000
X      0.27129654      0.35829235      0.61722159
X     -0.74463556      0.03471112     -0.16507582
X      0.47333936     -0.39300338     -0.45214553
   5
# data nr    19  (natoms,nloc)=    1    4
C      0.00000000      0.00000000      0.00000000
X     -0.00000000     -0.00000000      0.00000000
X      0.27129654      0.35829235      0.61722159
X     -0.74463556      0.03471112     -0.16507582
X      0.47333936     -0.39300338     -0.45214553
   5
# data nr    20  (natoms,nloc)=    1    4
C      0.00000000      0.00000000      0.00000000
X      0.00000000      0.00000000     -0.00000000
X      0.24508365      0.32366698      0.55758570
X     -0.67526868      0.03147880     -0.14970007
X      0.42670774     -0.35430687     -0.40759733
   5
# data nr     1  (natoms,nloc)=    1    4
C      0.00000000      0.00000000      0.00000000
X     -0.00000000     -0.00000000      0.00000000
X      0.16514309      0.21809901      0.37571390
X     -0.45327337      0.02112930     -0.10048469
X      0.28813028     -0.23922831     -0.27522921
   5
# data nr     2  (natoms,nloc)=    1    4
C      0.00000000      0.00000000      0.00000000
X      0.00000000     -0.00000000      0.00000000
X      0.25922808      0.34507266      0.59384786
X     -0.80312046      0.03725034     -0.17832207
X      0.46049747     -0.38419561     -0.44266379
   5
# data nr     3  (natoms,nloc)=    1    4
C      0.00000000      0.00000000      0.00000000
X      0.00000000     -0.00000000      0.00000000
X      0.26082916      0.34725242      0.59758846
X     -0.79156080      0.03672208     -0.17574354
X      0.46097574     -0.38459985     -0.44313137
   5
# data nr     4  (natoms,nloc)=    1    4
C      0.00000000      0.00000000      0.00000000
X      0.00000000     -0.00000000      0.00000000
X      0.26592375      0.35413067      0.60940432
X     -0.67825356      0.03154549     -0.15046682
X      0.47001486     -0.39219523     -0.45190151
   5
# data nr     5  (natoms,nloc)=    1    4
C      0.00000000      0.00000000      0.00000000
X      0.00000000     -0.00000000      0.00000000
X      0.26267191      0.34974033      0.60186234
X     -0.75057678      0.03484967     -0.16660077
X      0.46424525     -0.38734715     -0.44630359
   5
# data nr     6  (natoms,nloc)=    1    4
C      0.00000000      0.00000000      0.00000000
X      0.00000000     -0.00000000      0.00000000
X      0.26405450      0.35153177      0.60495602
X     -0.69417676      0.03227502     -0.15401589
X      0.45771299     -0.38175314     -0.43980787
   5
# data nr     7  (natoms,nloc)=    1    4
C      0.00000000      0.00000000      0.00000000
X      0.00000000     -0.00000000      0.00000000
X      0.26203503      0.34878642      0.60024398
X     -0.71618472      0.03328474     -0.15891906
X      0.45483524     -0.37932816     -0.43700545
   5
# data nr     8  (natoms,nloc)=    1    4
C      0.00000000      0.00000000      0.00000000
X      0.00000000     -0.00000000      0.00000000
X      0.25894607      0.34453506      0.59295822
X     -0.71137989      0.03307036     -0.15783948
X      0.44879613     -0.37419408     -0.43105661
   5
# data nr     9  (natoms,nloc)=    1    4
C      0.00000000      0.00000000      0.00000000
X      0.00000000     -0.00000000      0.00000000
X      0.24659025      0.32752960      0.56381518
X     -0.69216057      0.03221283     -0.15352118
X      0.42463970     -0.35365775     -0.40726126
   5
# data nr    10  (natoms,nloc)=    1    4
C      0.00000000      0.00000000      0.00000000
X      0.00000000     -0.00000000      0.00000000
X      0.22537909      0.29839985      0.51388075
X     -0.63976566      0.02984272     -0.14179737
X      0.40030957     -0.33289129     -0.38317097
   5
# data nr    11  (natoms,nloc)=    1    4
C      0.00000000      0.00000000      0.00000000
X      0.00000000     -0.00000000      0.00000000
X      0.23746398      0.31499629      0.54233048
X     -0.66961723      0.03119307     -0.14847692
X      0.41417146     -0.34472281     -0.39689622
   5
# data nr     1  (natoms,nloc)=    1    4
C      0.00000000      0.00000000      0.00000000
X     -0.00000000     -0.00000000      0.00000000
X      0.16514309      0.21809901      0.37571390
X     -0.45327337      0.02112930     -0.10048469
X      0.28813028     -0.23922831     -0.27522921
   5
# data nr     2  (natoms,nloc)=    1    4
C      0.00000000      0.00000000      0.00000000
X     -0.00000000     -0.00000000      0.00000000
X      0.27370423      0.36147212      0.62269927
X     -0.75124352      0.03501916     -0.16654072
X      0.47754000     -0.39649111     -0.45615808
   5
# data nr     1  (natoms,nloc)=    1    4
C      0.00000000      0.00000000      0.00000000
X     -0.00000000     -0.00000000      0.00000000
X      0.16514309      0.21809901      0.37571390
X     -0.45327337      0.02112930     -0.10048469
X      0.28813028     -0.23922831     -0.27522921
   5
# data nr     2  (natoms,nloc)=    1    4
C      0.00000000      0.00000000      0.00000000
X     -0.00000000     -0.00000000      0.00000000
X      0.27370423      0.36147212      0.62269927
X     -0.75124352      0.03501916     -0.16654072
X      0.47754000     -0.39649111     -0.45615808
   5
# data nr     1  (natoms,nloc)=    1    4
C      0.00000000      0.00000000      0.00000000
X     -0.00000000     -0.00000000      0.00000000
X      0.16514309      0.21809901      0.37571390
X     -0.45327337      0.02112930     -0.10048469
X      0.28813028     -0.23922831     -0.27522921
   5
# data nr     2  (natoms,nloc)=    1    4
C      0.00000000      0.00000000      0.00000000
X     -0.00000000     -0.00000000      0.00000000
X      0.27370423      0.36147212      0.62269927
X     -0.75124352      0.03501916     -0.16654072
X      0.47754000     -0.39649111     -0.45615808
   5
# data nr     1  (natoms,nloc)=    1    4
C      0.00000000      0.00000000      0.00000000
X     -0.00000000     -0.00000000      0.00000000
X      0.16514309      0.21809901      0.37571390
X     -0.45327337      0.02112930     -0.10048469
X      0.28813028     -0.23922831     -0.27522921
   5
# data nr     2  (natoms,nloc)=    1    4
C      0.00000000      0.00000000      0.00000000
X     -0.00000000     -0.00000000      0.00000000
X      0.27370423      0.36147212      0.62269927
X     -0.75124352      0.03501916     -0.16654072
X      0.47754000     -0.39649111     -0.45615808
