 spin=   1 iter=   1 nfo=    1      0.00030865     -0.00000000      0.00030949     -0.00000085
 spin=   1 iter=   1 nfo=    2      0.00030865      0.00000000     -0.00000085      0.00030949
 spin=   1 iter=   1 nfo=    3      0.00000001      0.00000000      0.00272062     -0.00272061
 spin=   1 iter=   1 nfo=    1      0.00030865     -0.00000000      0.00030949     -0.00000085
 spin=   1 iter=   1 nfo=    2      0.00030865      0.00000000     -0.00000085      0.00030949
 spin=   1 iter=   1 nfo=    3      0.00000001      0.00000000      0.00272062     -0.00272061
 spin=   1 iter=   1 nfo=    1      0.00030865     -0.00000000      0.00030949     -0.00000085
 spin=   1 iter=   1 nfo=    2      0.00030865      0.00000000     -0.00000085      0.00030949
 spin=   1 iter=   1 nfo=    3      0.00000001      0.00000000      0.00272062     -0.00272061
 spin=   1 iter=   1 nfo=    1      0.00030865     -0.00000000      0.00030949     -0.00000085
 spin=   1 iter=   1 nfo=    2      0.00030865      0.00000000     -0.00000085      0.00030949
 spin=   1 iter=   1 nfo=    3      0.00000001      0.00000000      0.00272062     -0.00272061
 spin=   1 iter=   1 nfo=    1      0.00030865     -0.00000000      0.00030949     -0.00000085
 spin=   1 iter=   1 nfo=    2      0.00030865      0.00000000     -0.00000085      0.00030949
 spin=   1 iter=   1 nfo=    3      0.00000001      0.00000000      0.00272062     -0.00272061
 spin=   1 iter=   1 nfo=    1      0.00030865     -0.00000000      0.00030949     -0.00000085
 spin=   1 iter=   1 nfo=    2      0.00030865      0.00000000     -0.00000085      0.00030949
 spin=   1 iter=   1 nfo=    3      0.00000001      0.00000000      0.00272062     -0.00272061
 spin=   1 iter=   1 nfo=    1      0.00030865     -0.00000000      0.00030949     -0.00000085
 spin=   1 iter=   1 nfo=    2      0.00030865      0.00000000     -0.00000085      0.00030949
 spin=   1 iter=   1 nfo=    3      0.00000001      0.00000000      0.00272062     -0.00272061
 spin=   1 iter=   1 nfo=    1      0.00030865     -0.00000000      0.00030949     -0.00000085
 spin=   1 iter=   1 nfo=    2      0.00030865      0.00000000     -0.00000085      0.00030949
 spin=   1 iter=   1 nfo=    3      0.00000001      0.00000000      0.00272062     -0.00272061
 spin=   1 iter=   1 nfo=    1      0.00030865     -0.00000000      0.00030949     -0.00000085
 spin=   1 iter=   1 nfo=    2      0.00030865      0.00000000     -0.00000085      0.00030949
 spin=   1 iter=   1 nfo=    3      0.00000001      0.00000000      0.00272062     -0.00272061
 spin=   1 iter=   1 nfo=    1      0.00030865     -0.00000000      0.00030949     -0.00000085
 spin=   1 iter=   1 nfo=    2      0.00030865      0.00000000     -0.00000085      0.00030949
 spin=   1 iter=   1 nfo=    3      0.00000001      0.00000000      0.00272062     -0.00272061
 spin=   1 iter=   1 nfo=    1      0.00030865     -0.00000000      0.00030949     -0.00000085
 spin=   1 iter=   1 nfo=    2      0.00030865      0.00000000     -0.00000085      0.00030949
 spin=   1 iter=   1 nfo=    3      0.00000001      0.00000000      0.00272062     -0.00272061
 spin=   1 iter=   1 nfo=    1      0.00030865     -0.00000000      0.00030949     -0.00000085
 spin=   1 iter=   1 nfo=    2      0.00030865      0.00000000     -0.00000085      0.00030949
 spin=   1 iter=   1 nfo=    3      0.00000001      0.00000000      0.00272062     -0.00272061
 spin=   1 iter=   1 nfo=    1      0.00030865     -0.00000000      0.00030949     -0.00000085
 spin=   1 iter=   1 nfo=    2      0.00030865      0.00000000     -0.00000085      0.00030949
 spin=   1 iter=   1 nfo=    3      0.00000001      0.00000000      0.00272062     -0.00272061
 spin=   1 iter=   1 nfo=    1      0.00030865     -0.00000000      0.00030949     -0.00000085
 spin=   1 iter=   1 nfo=    2      0.00030865      0.00000000     -0.00000085      0.00030949
 spin=   1 iter=   1 nfo=    3      0.00000001      0.00000000      0.00272062     -0.00272061
 spin=   1 iter=   1 nfo=    1      0.00030865     -0.00000000      0.00030949     -0.00000085
 spin=   1 iter=   1 nfo=    2      0.00030865      0.00000000     -0.00000085      0.00030949
 spin=   1 iter=   1 nfo=    3      0.00000001      0.00000000      0.00272062     -0.00272061
 spin=   1 iter=   1 nfo=    1      0.00030865     -0.00000000      0.00030949     -0.00000085
 spin=   1 iter=   1 nfo=    2      0.00030865      0.00000000     -0.00000085      0.00030949
 spin=   1 iter=   1 nfo=    3      0.00000001      0.00000000      0.00272062     -0.00272061
 spin=   1 iter=   1 nfo=    1      0.00030865     -0.00000000      0.00030949     -0.00000085
 spin=   1 iter=   1 nfo=    2      0.00030865      0.00000000     -0.00000085      0.00030949
 spin=   1 iter=   1 nfo=    3      0.00000001      0.00000000      0.00272062     -0.00272061
 spin=   1 iter=   1 nfo=    1      0.00030865     -0.00000000      0.00030949     -0.00000085
 spin=   1 iter=   1 nfo=    2      0.00030865      0.00000000     -0.00000085      0.00030949
 spin=   1 iter=   1 nfo=    3      0.00000001      0.00000000      0.00272062     -0.00272061
 spin=   1 iter=   1 nfo=    1      0.00030865     -0.00000000      0.00030949     -0.00000085
 spin=   1 iter=   1 nfo=    2      0.00030865      0.00000000     -0.00000085      0.00030949
 spin=   1 iter=   1 nfo=    3      0.00000001      0.00000000      0.00272062     -0.00272061
 spin=   1 iter=   1 nfo=    1      0.05310101     -0.00000000      0.04813989      0.00496112
 spin=   1 iter=   1 nfo=    2      0.05310101      0.00000000      0.00496112      0.04813989
 spin=   1 iter=   1 nfo=    3      0.00000000     -0.00000000     -0.01571580      0.01571580
 spin=   1 iter=   2 nfo=    1      0.00016192      0.00000000      0.00016678     -0.00000486
 spin=   1 iter=   2 nfo=    2      0.00016192     -0.00000000     -0.00000486      0.00016678
 spin=   1 iter=   2 nfo=    3      0.00000000      0.00000000      0.00184030     -0.00184030
 spin=   1 iter=   1 nfo=    1      0.05309976     -0.00000000      0.04813876      0.00496100
 spin=   1 iter=   1 nfo=    2      0.05309976      0.00000000      0.00496100      0.04813876
 spin=   1 iter=   1 nfo=    3      0.00000000     -0.00000000     -0.01661040      0.01661040
 spin=   1 iter=   2 nfo=    1      0.00016188     -0.00000000      0.00016675     -0.00000486
 spin=   1 iter=   2 nfo=    2      0.00016188      0.00000000     -0.00000486      0.00016675
 spin=   1 iter=   2 nfo=    3      0.00000000     -0.00000000      0.00184963     -0.00184963
 spin=   1 iter=   1 nfo=    1      0.00210669      0.00210669
 spin=   1 iter=   1 nfo=    2      0.00008192      0.00008192
 spin=   1 iter=   1 nfo=    1      0.00282165      0.00282165
 spin=   1 iter=   1 nfo=    2      0.00030337      0.00030337
 spin=   1 iter=   1 nfo=    1      0.00282165      0.00282165
 spin=   1 iter=   1 nfo=    2      0.00030337      0.00030337
 spin=   1 iter=   1 nfo=    1      0.00282165      0.00282165
 spin=   1 iter=   1 nfo=    2      0.00030337      0.00030337
 spin=   1 iter=   1 nfo=    1      0.00282165      0.00282165
 spin=   1 iter=   1 nfo=    2      0.00030337      0.00030337
 spin=   1 iter=   1 nfo=    1      0.00282165      0.00282165
 spin=   1 iter=   1 nfo=    2      0.00030337      0.00030337
 spin=   2 iter=   1 nfo=    1      0.00000000      0.00000000      0.00000000      0.00000000      0.00000000      0.00000000      0.00000000
 spin=   2 iter=   1 nfo=    2      0.09735180      0.20953153     -0.05676486     -0.05541488     -0.00000000     -0.00000000     -0.00000000
 spin=   2 iter=   1 nfo=    3      0.09735154     -0.05676490      0.20959147     -0.05547503      0.00000000      0.00000000      0.00000000
 spin=   2 iter=   1 nfo=    4      0.09735167     -0.05541490     -0.05547501      0.20824158     -0.00000000      0.00000000     -0.00000000
 spin=   2 iter=   2 nfo=    1      0.00000000      0.00000000      0.00000000      0.00000000      0.00000000      0.00000000      0.00000000
 spin=   2 iter=   2 nfo=    2      0.00087374      0.00189797     -0.00051858     -0.00050566     -0.00000000     -0.00000000     -0.00000000
 spin=   2 iter=   2 nfo=    3      0.00087369     -0.00051859      0.00190951     -0.00051723      0.00000000      0.00000000      0.00000000
 spin=   2 iter=   2 nfo=    4      0.00087372     -0.00050566     -0.00051722      0.00189660     -0.00000000      0.00000000     -0.00000000
 spin=   2 iter=   3 nfo=    1      0.00000000      0.00000000      0.00000000      0.00000000      0.00000000      0.00000000      0.00000000
 spin=   2 iter=   3 nfo=    2      0.00087628      0.00189973     -0.00050804     -0.00051541     -0.00000000     -0.00000000      0.00000000
 spin=   2 iter=   3 nfo=    3      0.00087624     -0.00050806      0.00190659     -0.00052230      0.00000000     -0.00000000      0.00000000
 spin=   2 iter=   3 nfo=    4      0.00087626     -0.00051542     -0.00052229      0.00191397     -0.00000000      0.00000000     -0.00000000
 spin=   2 iter=   4 nfo=    1      0.00000000      0.00000000      0.00000000      0.00000000      0.00000000      0.00000000     -0.00000000
 spin=   2 iter=   4 nfo=    2      0.00088023      0.00191722     -0.00051164     -0.00052535     -0.00000000     -0.00000000     -0.00000000
 spin=   2 iter=   4 nfo=    3      0.00088022     -0.00051164      0.00190684     -0.00051498      0.00000000     -0.00000000     -0.00000000
 spin=   2 iter=   4 nfo=    4      0.00088023     -0.00052535     -0.00051498      0.00192055      0.00000000      0.00000000      0.00000000
 spin=   2 iter=   5 nfo=    1      0.00000000      0.00000000      0.00000000      0.00000000      0.00000000     -0.00000000      0.00000000
 spin=   2 iter=   5 nfo=    2      0.00087796      0.00190397     -0.00050847     -0.00051754     -0.00000000      0.00000000      0.00000000
 spin=   2 iter=   5 nfo=    3      0.00087793     -0.00050848      0.00190896     -0.00052256      0.00000000      0.00000000      0.00000000
 spin=   2 iter=   5 nfo=    4      0.00087794     -0.00051755     -0.00052255      0.00191804     -0.00000000     -0.00000000     -0.00000000
 spin=   2 iter=   6 nfo=    1      0.00000000      0.00000000      0.00000000      0.00000000      0.00000000     -0.00000000      0.00000000
 spin=   2 iter=   6 nfo=    2      0.00087899      0.00190465     -0.00051061     -0.00051505     -0.00000000      0.00000000      0.00000000
 spin=   2 iter=   6 nfo=    3      0.00087896     -0.00051062      0.00191418     -0.00052460      0.00000000      0.00000000      0.00000000
 spin=   2 iter=   6 nfo=    4      0.00087897     -0.00051505     -0.00052459      0.00191861     -0.00000000     -0.00000000     -0.00000000
 spin=   2 iter=   7 nfo=    1      0.00000000      0.00000000      0.00000000      0.00000000      0.00000000      0.00000000      0.00000000
 spin=   2 iter=   7 nfo=    2      0.00087960      0.00191763     -0.00051270     -0.00052533     -0.00000000     -0.00000000      0.00000000
 spin=   2 iter=   7 nfo=    3      0.00087958     -0.00051271      0.00190550     -0.00051321      0.00000000     -0.00000000      0.00000000
 spin=   2 iter=   7 nfo=    4      0.00087959     -0.00052533     -0.00051321      0.00191813      0.00000000      0.00000000     -0.00000000
 spin=   2 iter=   8 nfo=    1      0.00000000      0.00000000      0.00000000      0.00000000      0.00000000      0.00000000     -0.00000000
 spin=   2 iter=   8 nfo=    2      0.00087913      0.00190732     -0.00050874     -0.00051944     -0.00000000     -0.00000000     -0.00000000
 spin=   2 iter=   8 nfo=    3      0.00087911     -0.00050875      0.00191016     -0.00052230      0.00000000     -0.00000000     -0.00000000
 spin=   2 iter=   8 nfo=    4      0.00087911     -0.00051945     -0.00052230      0.00192086     -0.00000000      0.00000000      0.00000000
 spin=   2 iter=   9 nfo=    1      0.00000000      0.00000000      0.00000000      0.00000000      0.00000000     -0.00000000      0.00000000
 spin=   2 iter=   9 nfo=    2      0.00087899      0.00190465     -0.00051061     -0.00051505     -0.00000000      0.00000000      0.00000000
 spin=   2 iter=   9 nfo=    3      0.00087896     -0.00051062      0.00191418     -0.00052460      0.00000000      0.00000000      0.00000000
 spin=   2 iter=   9 nfo=    4      0.00087897     -0.00051505     -0.00052459      0.00191861     -0.00000000     -0.00000000     -0.00000000
 spin=   2 iter=  10 nfo=    1      0.00000000      0.00000000      0.00000000      0.00000000      0.00000000     -0.00000000      0.00000000
 spin=   2 iter=  10 nfo=    2      0.00088002      0.00192152     -0.00051686     -0.00052465     -0.00000000      0.00000000      0.00000000
 spin=   2 iter=  10 nfo=    3      0.00087999     -0.00051687      0.00190723     -0.00051037      0.00000000     -0.00000000      0.00000000
 spin=   2 iter=  10 nfo=    4      0.00088001     -0.00052465     -0.00051036      0.00191502      0.00000000     -0.00000000     -0.00000000
 spin=   2 iter=  11 nfo=    1      0.00000000      0.00000000      0.00000000      0.00000000     -0.00000000      0.00000000      0.00000000
 spin=   2 iter=  11 nfo=    2      0.00087926      0.00192130     -0.00052102     -0.00052102     -0.00000000     -0.00000000     -0.00000000
 spin=   2 iter=  11 nfo=    3      0.00087923     -0.00052103      0.00192128     -0.00052102     -0.00000000      0.00000000      0.00000000
 spin=   2 iter=  11 nfo=    4      0.00087924     -0.00052103     -0.00052102      0.00192129      0.00000000     -0.00000000     -0.00000000
 spin=   2 iter=  12 nfo=    1      0.00000000      0.00000000      0.00000000      0.00000000      0.00000000      0.00000000      0.00000000
 spin=   2 iter=  12 nfo=    2      0.00087905      0.00192086     -0.00052091     -0.00052091     -0.00000000     -0.00000000      0.00000000
 spin=   2 iter=  12 nfo=    3      0.00087902     -0.00052091      0.00192084     -0.00052091      0.00000000      0.00000000      0.00000000
 spin=   2 iter=  12 nfo=    4      0.00087903     -0.00052091     -0.00052091      0.00192085      0.00000000      0.00000000     -0.00000000
 spin=   2 iter=  13 nfo=    1      0.00000000      0.00000000      0.00000000      0.00000000      0.00000000      0.00000000     -0.00000000
 spin=   2 iter=  13 nfo=    2      0.00087900      0.00192070     -0.00051996     -0.00052174     -0.00000000     -0.00000000     -0.00000000
 spin=   2 iter=  13 nfo=    3      0.00087897     -0.00051997      0.00190751     -0.00050858      0.00000000      0.00000000     -0.00000000
 spin=   2 iter=  13 nfo=    4      0.00087899     -0.00052174     -0.00050857      0.00190930      0.00000000      0.00000000      0.00000000
 spin=   2 iter=  14 nfo=    1      0.00000000      0.00000000      0.00000000      0.00000000      0.00000000      0.00000000     -0.00000000
 spin=   2 iter=  14 nfo=    2      0.00087899      0.00191365     -0.00051025     -0.00052440     -0.00000000     -0.00000000     -0.00000000
 spin=   2 iter=  14 nfo=    3      0.00087896     -0.00051026      0.00190482     -0.00051560      0.00000000     -0.00000000     -0.00000000
 spin=   2 iter=  14 nfo=    4      0.00087898     -0.00052441     -0.00051560      0.00191898      0.00000000      0.00000000      0.00000000
 spin=   2 iter=  15 nfo=    1      0.00000000      0.00000000      0.00000000      0.00000000      0.00000000      0.00000000     -0.00000000
 spin=   2 iter=  15 nfo=    2      0.00087899      0.00191358     -0.00051021     -0.00052438     -0.00000000     -0.00000000     -0.00000000
 spin=   2 iter=  15 nfo=    3      0.00087896     -0.00051022      0.00190484     -0.00051567      0.00000000     -0.00000000     -0.00000000
 spin=   2 iter=  15 nfo=    4      0.00087897     -0.00052438     -0.00051566      0.00191902      0.00000000      0.00000000      0.00000000
 spin=   2 iter=  16 nfo=    1      0.00000000      0.00000000      0.00000000      0.00000000      0.00000000      0.00000000     -0.00000000
 spin=   2 iter=  16 nfo=    2      0.00087899      0.00192031     -0.00051841     -0.00052292     -0.00000000     -0.00000000     -0.00000000
 spin=   2 iter=  16 nfo=    3      0.00087896     -0.00051842      0.00190630     -0.00050893      0.00000000      0.00000000     -0.00000000
 spin=   2 iter=  16 nfo=    4      0.00087897     -0.00052292     -0.00050892      0.00191082      0.00000000      0.00000000      0.00000000
 spin=   2 iter=  17 nfo=    1      0.00000000      0.00000000      0.00000000      0.00000000      0.00000000      0.00000000     -0.00000000
 spin=   2 iter=  17 nfo=    2      0.00087899      0.00192074     -0.00052087     -0.00052088     -0.00000000     -0.00000000      0.00000000
 spin=   2 iter=  17 nfo=    3      0.00087895     -0.00052088      0.00192071     -0.00052088      0.00000000      0.00000000     -0.00000000
 spin=   2 iter=  17 nfo=    4      0.00087898     -0.00052088     -0.00052087      0.00192073      0.00000000      0.00000000     -0.00000000
 spin=   2 iter=  18 nfo=    1      0.00000000      0.00000000      0.00000000      0.00000000      0.00000000     -0.00000000      0.00000000
 spin=   2 iter=  18 nfo=    2      0.00087899      0.00191364     -0.00051025     -0.00052440     -0.00000000      0.00000000      0.00000000
 spin=   2 iter=  18 nfo=    3      0.00087896     -0.00051026      0.00190482     -0.00051560      0.00000000      0.00000000      0.00000000
 spin=   2 iter=  18 nfo=    4      0.00087897     -0.00052441     -0.00051560      0.00191897      0.00000000     -0.00000000     -0.00000000
 spin=   2 iter=  19 nfo=    1      0.00000000      0.00000000      0.00000000      0.00000000      0.00000000      0.00000000     -0.00000000
 spin=   2 iter=  19 nfo=    2      0.00087899      0.00192074     -0.00052087     -0.00052088     -0.00000000     -0.00000000      0.00000000
 spin=   2 iter=  19 nfo=    3      0.00087895     -0.00052088      0.00192071     -0.00052088      0.00000000      0.00000000     -0.00000000
 spin=   2 iter=  19 nfo=    4      0.00087898     -0.00052088     -0.00052087      0.00192073      0.00000000      0.00000000     -0.00000000
 spin=   2 iter=  20 nfo=    1      0.00000000      0.00000000      0.00000000      0.00000000      0.00000000      0.00000000      0.00000000
 spin=   2 iter=  20 nfo=    2      0.00034017      0.00087149     -0.00037036     -0.00016114      0.00000038     -0.00000021      0.00000001
 spin=   2 iter=  20 nfo=    3      0.00093465     -0.00023306      0.00132772     -0.00015905     -0.00000038      0.00000000     -0.00000059
 spin=   2 iter=  20 nfo=    4      0.00000755     -0.00023480     -0.00036828      0.00060983      0.00000000      0.00000021      0.00000059
 spin=   1 iter=   1 nfo=    1      0.00282165      0.00282165
 spin=   1 iter=   1 nfo=    2      0.00030337      0.00030337
 spin=   2 iter=   1 nfo=    1      0.00000000      0.00000000      0.00000000      0.00000000      0.00000000      0.00000000      0.00000000
 spin=   2 iter=   1 nfo=    2      0.09735180      0.20953153     -0.05676486     -0.05541488     -0.00000000     -0.00000000     -0.00000000
 spin=   2 iter=   1 nfo=    3      0.09735154     -0.05676490      0.20959147     -0.05547503      0.00000000      0.00000000      0.00000000
 spin=   2 iter=   1 nfo=    4      0.09735167     -0.05541490     -0.05547501      0.20824158     -0.00000000      0.00000000     -0.00000000
 spin=   2 iter=   2 nfo=    1      0.00000000      0.00000000      0.00000000      0.00000000      0.00000000      0.00000000      0.00000000
 spin=   2 iter=   2 nfo=    2      0.00087374      0.00189797     -0.00051858     -0.00050566     -0.00000000     -0.00000000     -0.00000000
 spin=   2 iter=   2 nfo=    3      0.00087369     -0.00051859      0.00190951     -0.00051723      0.00000000      0.00000000      0.00000000
 spin=   2 iter=   2 nfo=    4      0.00087372     -0.00050566     -0.00051722      0.00189660     -0.00000000      0.00000000     -0.00000000
 spin=   2 iter=   3 nfo=    1      0.00000000      0.00000000      0.00000000      0.00000000      0.00000000      0.00000000      0.00000000
 spin=   2 iter=   3 nfo=    2      0.00087628      0.00189973     -0.00050804     -0.00051541     -0.00000000     -0.00000000      0.00000000
 spin=   2 iter=   3 nfo=    3      0.00087624     -0.00050806      0.00190659     -0.00052230      0.00000000     -0.00000000      0.00000000
 spin=   2 iter=   3 nfo=    4      0.00087626     -0.00051542     -0.00052229      0.00191397     -0.00000000      0.00000000     -0.00000000
 spin=   2 iter=   4 nfo=    1      0.00000000      0.00000000      0.00000000      0.00000000      0.00000000      0.00000000     -0.00000000
 spin=   2 iter=   4 nfo=    2      0.00088023      0.00191722     -0.00051164     -0.00052535     -0.00000000     -0.00000000     -0.00000000
 spin=   2 iter=   4 nfo=    3      0.00088022     -0.00051164      0.00190684     -0.00051498      0.00000000     -0.00000000     -0.00000000
 spin=   2 iter=   4 nfo=    4      0.00088023     -0.00052535     -0.00051498      0.00192055      0.00000000      0.00000000      0.00000000
 spin=   2 iter=   5 nfo=    1      0.00000000      0.00000000      0.00000000      0.00000000      0.00000000     -0.00000000      0.00000000
 spin=   2 iter=   5 nfo=    2      0.00087796      0.00190397     -0.00050847     -0.00051754     -0.00000000      0.00000000      0.00000000
 spin=   2 iter=   5 nfo=    3      0.00087793     -0.00050848      0.00190896     -0.00052256      0.00000000      0.00000000      0.00000000
 spin=   2 iter=   5 nfo=    4      0.00087794     -0.00051755     -0.00052255      0.00191804     -0.00000000     -0.00000000     -0.00000000
 spin=   2 iter=   6 nfo=    1      0.00000000      0.00000000      0.00000000      0.00000000      0.00000000     -0.00000000      0.00000000
 spin=   2 iter=   6 nfo=    2      0.00087899      0.00190465     -0.00051061     -0.00051505     -0.00000000      0.00000000      0.00000000
 spin=   2 iter=   6 nfo=    3      0.00087896     -0.00051062      0.00191418     -0.00052460      0.00000000      0.00000000      0.00000000
 spin=   2 iter=   6 nfo=    4      0.00087897     -0.00051505     -0.00052459      0.00191861     -0.00000000     -0.00000000     -0.00000000
 spin=   2 iter=   7 nfo=    1      0.00000000      0.00000000      0.00000000      0.00000000      0.00000000      0.00000000      0.00000000
 spin=   2 iter=   7 nfo=    2      0.00087960      0.00191763     -0.00051270     -0.00052533     -0.00000000     -0.00000000      0.00000000
 spin=   2 iter=   7 nfo=    3      0.00087958     -0.00051271      0.00190550     -0.00051321      0.00000000     -0.00000000      0.00000000
 spin=   2 iter=   7 nfo=    4      0.00087959     -0.00052533     -0.00051321      0.00191813      0.00000000      0.00000000     -0.00000000
 spin=   2 iter=   8 nfo=    1      0.00000000      0.00000000      0.00000000      0.00000000      0.00000000      0.00000000     -0.00000000
 spin=   2 iter=   8 nfo=    2      0.00087913      0.00190732     -0.00050874     -0.00051944     -0.00000000     -0.00000000     -0.00000000
 spin=   2 iter=   8 nfo=    3      0.00087911     -0.00050875      0.00191016     -0.00052230      0.00000000     -0.00000000     -0.00000000
 spin=   2 iter=   8 nfo=    4      0.00087911     -0.00051945     -0.00052230      0.00192086     -0.00000000      0.00000000      0.00000000
 spin=   2 iter=   9 nfo=    1      0.00000000      0.00000000      0.00000000      0.00000000      0.00000000     -0.00000000      0.00000000
 spin=   2 iter=   9 nfo=    2      0.00087899      0.00190465     -0.00051061     -0.00051505     -0.00000000      0.00000000      0.00000000
 spin=   2 iter=   9 nfo=    3      0.00087896     -0.00051062      0.00191418     -0.00052460      0.00000000      0.00000000      0.00000000
 spin=   2 iter=   9 nfo=    4      0.00087897     -0.00051505     -0.00052459      0.00191861     -0.00000000     -0.00000000     -0.00000000
 spin=   2 iter=  10 nfo=    1      0.00000000      0.00000000      0.00000000      0.00000000      0.00000000     -0.00000000      0.00000000
 spin=   2 iter=  10 nfo=    2      0.00088002      0.00192152     -0.00051686     -0.00052465     -0.00000000      0.00000000      0.00000000
 spin=   2 iter=  10 nfo=    3      0.00087999     -0.00051687      0.00190723     -0.00051037      0.00000000     -0.00000000      0.00000000
 spin=   2 iter=  10 nfo=    4      0.00088001     -0.00052465     -0.00051036      0.00191502      0.00000000     -0.00000000     -0.00000000
 spin=   2 iter=  11 nfo=    1      0.00000000      0.00000000      0.00000000      0.00000000     -0.00000000      0.00000000      0.00000000
 spin=   2 iter=  11 nfo=    2      0.00087926      0.00192130     -0.00052102     -0.00052102     -0.00000000     -0.00000000     -0.00000000
 spin=   2 iter=  11 nfo=    3      0.00087923     -0.00052103      0.00192128     -0.00052102     -0.00000000      0.00000000      0.00000000
 spin=   2 iter=  11 nfo=    4      0.00087924     -0.00052103     -0.00052102      0.00192129      0.00000000     -0.00000000     -0.00000000
 spin=   2 iter=  12 nfo=    1      0.00000000      0.00000000      0.00000000      0.00000000      0.00000000      0.00000000      0.00000000
 spin=   2 iter=  12 nfo=    2      0.00087905      0.00192086     -0.00052091     -0.00052091     -0.00000000     -0.00000000      0.00000000
 spin=   2 iter=  12 nfo=    3      0.00087902     -0.00052091      0.00192084     -0.00052091      0.00000000      0.00000000      0.00000000
 spin=   2 iter=  12 nfo=    4      0.00087903     -0.00052091     -0.00052091      0.00192085      0.00000000      0.00000000     -0.00000000
 spin=   2 iter=  13 nfo=    1      0.00000000      0.00000000      0.00000000      0.00000000      0.00000000      0.00000000     -0.00000000
 spin=   2 iter=  13 nfo=    2      0.00087900      0.00192070     -0.00051996     -0.00052174     -0.00000000     -0.00000000     -0.00000000
 spin=   2 iter=  13 nfo=    3      0.00087897     -0.00051997      0.00190751     -0.00050858      0.00000000      0.00000000     -0.00000000
 spin=   2 iter=  13 nfo=    4      0.00087899     -0.00052174     -0.00050857      0.00190930      0.00000000      0.00000000      0.00000000
 spin=   2 iter=  14 nfo=    1      0.00000000      0.00000000      0.00000000      0.00000000      0.00000000      0.00000000     -0.00000000
 spin=   2 iter=  14 nfo=    2      0.00087899      0.00191365     -0.00051025     -0.00052440     -0.00000000     -0.00000000     -0.00000000
 spin=   2 iter=  14 nfo=    3      0.00087896     -0.00051026      0.00190482     -0.00051560      0.00000000     -0.00000000     -0.00000000
 spin=   2 iter=  14 nfo=    4      0.00087898     -0.00052441     -0.00051560      0.00191898      0.00000000      0.00000000      0.00000000
 spin=   2 iter=  15 nfo=    1      0.00000000      0.00000000      0.00000000      0.00000000      0.00000000      0.00000000     -0.00000000
 spin=   2 iter=  15 nfo=    2      0.00087899      0.00191358     -0.00051021     -0.00052438     -0.00000000     -0.00000000     -0.00000000
 spin=   2 iter=  15 nfo=    3      0.00087896     -0.00051022      0.00190484     -0.00051567      0.00000000     -0.00000000     -0.00000000
 spin=   2 iter=  15 nfo=    4      0.00087897     -0.00052438     -0.00051566      0.00191902      0.00000000      0.00000000      0.00000000
 spin=   2 iter=  16 nfo=    1      0.00000000      0.00000000      0.00000000      0.00000000      0.00000000      0.00000000     -0.00000000
 spin=   2 iter=  16 nfo=    2      0.00087899      0.00192031     -0.00051841     -0.00052292     -0.00000000     -0.00000000     -0.00000000
 spin=   2 iter=  16 nfo=    3      0.00087896     -0.00051842      0.00190630     -0.00050893      0.00000000      0.00000000     -0.00000000
 spin=   2 iter=  16 nfo=    4      0.00087897     -0.00052292     -0.00050892      0.00191082      0.00000000      0.00000000      0.00000000
 spin=   2 iter=  17 nfo=    1      0.00000000      0.00000000      0.00000000      0.00000000      0.00000000      0.00000000     -0.00000000
 spin=   2 iter=  17 nfo=    2      0.00087899      0.00192074     -0.00052087     -0.00052088     -0.00000000     -0.00000000      0.00000000
 spin=   2 iter=  17 nfo=    3      0.00087895     -0.00052088      0.00192071     -0.00052088      0.00000000      0.00000000     -0.00000000
 spin=   2 iter=  17 nfo=    4      0.00087898     -0.00052088     -0.00052087      0.00192073      0.00000000      0.00000000     -0.00000000
 spin=   2 iter=  18 nfo=    1      0.00000000      0.00000000      0.00000000      0.00000000      0.00000000     -0.00000000      0.00000000
 spin=   2 iter=  18 nfo=    2      0.00087899      0.00191364     -0.00051025     -0.00052440     -0.00000000      0.00000000      0.00000000
 spin=   2 iter=  18 nfo=    3      0.00087896     -0.00051026      0.00190482     -0.00051560      0.00000000      0.00000000      0.00000000
 spin=   2 iter=  18 nfo=    4      0.00087897     -0.00052441     -0.00051560      0.00191897      0.00000000     -0.00000000     -0.00000000
 spin=   2 iter=  19 nfo=    1      0.00000000      0.00000000      0.00000000      0.00000000      0.00000000      0.00000000     -0.00000000
 spin=   2 iter=  19 nfo=    2      0.00087899      0.00192074     -0.00052087     -0.00052088     -0.00000000     -0.00000000      0.00000000
 spin=   2 iter=  19 nfo=    3      0.00087895     -0.00052088      0.00192071     -0.00052088      0.00000000      0.00000000     -0.00000000
 spin=   2 iter=  19 nfo=    4      0.00087898     -0.00052088     -0.00052087      0.00192073      0.00000000      0.00000000     -0.00000000
 spin=   2 iter=  20 nfo=    1      0.00000000      0.00000000      0.00000000      0.00000000      0.00000000      0.00000000      0.00000000
 spin=   2 iter=  20 nfo=    2      0.00034017      0.00087149     -0.00037036     -0.00016114      0.00000038     -0.00000021      0.00000001
 spin=   2 iter=  20 nfo=    3      0.00093465     -0.00023306      0.00132772     -0.00015905     -0.00000038      0.00000000     -0.00000059
 spin=   2 iter=  20 nfo=    4      0.00000755     -0.00023480     -0.00036828      0.00060983      0.00000000      0.00000021      0.00000059
 spin=   1 iter=   1 nfo=    1      0.00005417      0.00005417
 spin=   1 iter=   1 nfo=    2      0.00000596      0.00000596
 spin=   2 iter=   1 nfo=    1      0.00000000      0.00000000      0.00000000      0.00000000      0.00000000      0.00000000     -0.00000000
 spin=   2 iter=   1 nfo=    2      0.07228472      0.15593887     -0.04167851     -0.04197564     -0.00000000     -0.00000000     -0.00000000
 spin=   2 iter=   1 nfo=    3      0.07228447     -0.04167855      0.15484302     -0.04087999      0.00000000      0.00000000     -0.00000000
 spin=   2 iter=   1 nfo=    4      0.07228459     -0.04197566     -0.04087997      0.15514022      0.00000000      0.00000000      0.00000000
 spin=   2 iter=   2 nfo=    1      0.00000000      0.00000000      0.00000000      0.00000000      0.00000000      0.00000000      0.00000000
 spin=   2 iter=   2 nfo=    2      0.00003249      0.00007056     -0.00001878     -0.00001928     -0.00000000     -0.00000000      0.00000000
 spin=   2 iter=   2 nfo=    3      0.00003243     -0.00001880      0.00007042     -0.00001920      0.00000000     -0.00000000      0.00000000
 spin=   2 iter=   2 nfo=    4      0.00003246     -0.00001929     -0.00001919      0.00007094      0.00000000      0.00000000     -0.00000000
 spin=   1 iter=   1 nfo=    1      0.00282165      0.00282165
 spin=   1 iter=   1 nfo=    2      0.00030337      0.00030337
 spin=   2 iter=   1 nfo=    1      0.00000000      0.00000000      0.00000000      0.00000000      0.00000000      0.00000000      0.00000000
 spin=   2 iter=   1 nfo=    2      0.09735180      0.20953153     -0.05676486     -0.05541488     -0.00000000     -0.00000000     -0.00000000
 spin=   2 iter=   1 nfo=    3      0.09735154     -0.05676490      0.20959147     -0.05547503      0.00000000      0.00000000      0.00000000
 spin=   2 iter=   1 nfo=    4      0.09735167     -0.05541490     -0.05547501      0.20824158     -0.00000000      0.00000000     -0.00000000
 spin=   2 iter=   2 nfo=    1      0.00000000      0.00000000      0.00000000      0.00000000      0.00000000      0.00000000      0.00000000
 spin=   2 iter=   2 nfo=    2      0.00087374      0.00189797     -0.00051858     -0.00050566     -0.00000000     -0.00000000     -0.00000000
 spin=   2 iter=   2 nfo=    3      0.00087369     -0.00051859      0.00190951     -0.00051723      0.00000000      0.00000000      0.00000000
 spin=   2 iter=   2 nfo=    4      0.00087372     -0.00050566     -0.00051722      0.00189660     -0.00000000      0.00000000     -0.00000000
 spin=   2 iter=   3 nfo=    1      0.00000000      0.00000000      0.00000000      0.00000000      0.00000000      0.00000000      0.00000000
 spin=   2 iter=   3 nfo=    2      0.00087628      0.00189973     -0.00050804     -0.00051541     -0.00000000     -0.00000000      0.00000000
 spin=   2 iter=   3 nfo=    3      0.00087624     -0.00050806      0.00190659     -0.00052230      0.00000000     -0.00000000      0.00000000
 spin=   2 iter=   3 nfo=    4      0.00087626     -0.00051542     -0.00052229      0.00191397     -0.00000000      0.00000000     -0.00000000
 spin=   2 iter=   4 nfo=    1      0.00000000      0.00000000      0.00000000      0.00000000      0.00000000      0.00000000     -0.00000000
 spin=   2 iter=   4 nfo=    2      0.00088023      0.00191722     -0.00051164     -0.00052535     -0.00000000     -0.00000000     -0.00000000
 spin=   2 iter=   4 nfo=    3      0.00088022     -0.00051164      0.00190684     -0.00051498      0.00000000     -0.00000000     -0.00000000
 spin=   2 iter=   4 nfo=    4      0.00088023     -0.00052535     -0.00051498      0.00192055      0.00000000      0.00000000      0.00000000
 spin=   2 iter=   5 nfo=    1      0.00000000      0.00000000      0.00000000      0.00000000      0.00000000     -0.00000000      0.00000000
 spin=   2 iter=   5 nfo=    2      0.00087796      0.00190397     -0.00050847     -0.00051754     -0.00000000      0.00000000      0.00000000
 spin=   2 iter=   5 nfo=    3      0.00087793     -0.00050848      0.00190896     -0.00052256      0.00000000      0.00000000      0.00000000
 spin=   2 iter=   5 nfo=    4      0.00087794     -0.00051755     -0.00052255      0.00191804     -0.00000000     -0.00000000     -0.00000000
 spin=   2 iter=   6 nfo=    1      0.00000000      0.00000000      0.00000000      0.00000000      0.00000000     -0.00000000      0.00000000
 spin=   2 iter=   6 nfo=    2      0.00087899      0.00190465     -0.00051061     -0.00051505     -0.00000000      0.00000000      0.00000000
 spin=   2 iter=   6 nfo=    3      0.00087896     -0.00051062      0.00191418     -0.00052460      0.00000000      0.00000000      0.00000000
 spin=   2 iter=   6 nfo=    4      0.00087897     -0.00051505     -0.00052459      0.00191861     -0.00000000     -0.00000000     -0.00000000
 spin=   2 iter=   7 nfo=    1      0.00000000      0.00000000      0.00000000      0.00000000      0.00000000      0.00000000      0.00000000
 spin=   2 iter=   7 nfo=    2      0.00087960      0.00191763     -0.00051270     -0.00052533     -0.00000000     -0.00000000      0.00000000
 spin=   2 iter=   7 nfo=    3      0.00087958     -0.00051271      0.00190550     -0.00051321      0.00000000     -0.00000000      0.00000000
 spin=   2 iter=   7 nfo=    4      0.00087959     -0.00052533     -0.00051321      0.00191813      0.00000000      0.00000000     -0.00000000
 spin=   2 iter=   8 nfo=    1      0.00000000      0.00000000      0.00000000      0.00000000      0.00000000      0.00000000     -0.00000000
 spin=   2 iter=   8 nfo=    2      0.00087913      0.00190732     -0.00050874     -0.00051944     -0.00000000     -0.00000000     -0.00000000
 spin=   2 iter=   8 nfo=    3      0.00087911     -0.00050875      0.00191016     -0.00052230      0.00000000     -0.00000000     -0.00000000
 spin=   2 iter=   8 nfo=    4      0.00087911     -0.00051945     -0.00052230      0.00192086     -0.00000000      0.00000000      0.00000000
 spin=   2 iter=   9 nfo=    1      0.00000000      0.00000000      0.00000000      0.00000000      0.00000000     -0.00000000      0.00000000
 spin=   2 iter=   9 nfo=    2      0.00087899      0.00190465     -0.00051061     -0.00051505     -0.00000000      0.00000000      0.00000000
 spin=   2 iter=   9 nfo=    3      0.00087896     -0.00051062      0.00191418     -0.00052460      0.00000000      0.00000000      0.00000000
 spin=   2 iter=   9 nfo=    4      0.00087897     -0.00051505     -0.00052459      0.00191861     -0.00000000     -0.00000000     -0.00000000
 spin=   2 iter=  10 nfo=    1      0.00000000      0.00000000      0.00000000      0.00000000      0.00000000     -0.00000000      0.00000000
 spin=   2 iter=  10 nfo=    2      0.00088002      0.00192152     -0.00051686     -0.00052465     -0.00000000      0.00000000      0.00000000
 spin=   2 iter=  10 nfo=    3      0.00087999     -0.00051687      0.00190723     -0.00051037      0.00000000     -0.00000000      0.00000000
 spin=   2 iter=  10 nfo=    4      0.00088001     -0.00052465     -0.00051036      0.00191502      0.00000000     -0.00000000     -0.00000000
 spin=   2 iter=  11 nfo=    1      0.00000000      0.00000000      0.00000000      0.00000000     -0.00000000      0.00000000      0.00000000
 spin=   2 iter=  11 nfo=    2      0.00087926      0.00192130     -0.00052102     -0.00052102     -0.00000000     -0.00000000     -0.00000000
 spin=   2 iter=  11 nfo=    3      0.00087923     -0.00052103      0.00192128     -0.00052102     -0.00000000      0.00000000      0.00000000
 spin=   2 iter=  11 nfo=    4      0.00087924     -0.00052103     -0.00052102      0.00192129      0.00000000     -0.00000000     -0.00000000
 spin=   2 iter=  12 nfo=    1      0.00000000      0.00000000      0.00000000      0.00000000      0.00000000      0.00000000      0.00000000
 spin=   2 iter=  12 nfo=    2      0.00087905      0.00192086     -0.00052091     -0.00052091     -0.00000000     -0.00000000      0.00000000
 spin=   2 iter=  12 nfo=    3      0.00087902     -0.00052091      0.00192084     -0.00052091      0.00000000      0.00000000      0.00000000
 spin=   2 iter=  12 nfo=    4      0.00087903     -0.00052091     -0.00052091      0.00192085      0.00000000      0.00000000     -0.00000000
 spin=   2 iter=  13 nfo=    1      0.00000000      0.00000000      0.00000000      0.00000000      0.00000000      0.00000000     -0.00000000
 spin=   2 iter=  13 nfo=    2      0.00087900      0.00192070     -0.00051996     -0.00052174     -0.00000000     -0.00000000     -0.00000000
 spin=   2 iter=  13 nfo=    3      0.00087897     -0.00051997      0.00190751     -0.00050858      0.00000000      0.00000000     -0.00000000
 spin=   2 iter=  13 nfo=    4      0.00087899     -0.00052174     -0.00050857      0.00190930      0.00000000      0.00000000      0.00000000
 spin=   2 iter=  14 nfo=    1      0.00000000      0.00000000      0.00000000      0.00000000      0.00000000      0.00000000     -0.00000000
 spin=   2 iter=  14 nfo=    2      0.00087899      0.00191365     -0.00051025     -0.00052440     -0.00000000     -0.00000000     -0.00000000
 spin=   2 iter=  14 nfo=    3      0.00087896     -0.00051026      0.00190482     -0.00051560      0.00000000     -0.00000000     -0.00000000
 spin=   2 iter=  14 nfo=    4      0.00087898     -0.00052441     -0.00051560      0.00191898      0.00000000      0.00000000      0.00000000
 spin=   2 iter=  15 nfo=    1      0.00000000      0.00000000      0.00000000      0.00000000      0.00000000      0.00000000     -0.00000000
 spin=   2 iter=  15 nfo=    2      0.00087899      0.00191358     -0.00051021     -0.00052438     -0.00000000     -0.00000000     -0.00000000
 spin=   2 iter=  15 nfo=    3      0.00087896     -0.00051022      0.00190484     -0.00051567      0.00000000     -0.00000000     -0.00000000
 spin=   2 iter=  15 nfo=    4      0.00087897     -0.00052438     -0.00051566      0.00191902      0.00000000      0.00000000      0.00000000
 spin=   2 iter=  16 nfo=    1      0.00000000      0.00000000      0.00000000      0.00000000      0.00000000      0.00000000     -0.00000000
 spin=   2 iter=  16 nfo=    2      0.00087899      0.00192031     -0.00051841     -0.00052292     -0.00000000     -0.00000000     -0.00000000
 spin=   2 iter=  16 nfo=    3      0.00087896     -0.00051842      0.00190630     -0.00050893      0.00000000      0.00000000     -0.00000000
 spin=   2 iter=  16 nfo=    4      0.00087897     -0.00052292     -0.00050892      0.00191082      0.00000000      0.00000000      0.00000000
 spin=   2 iter=  17 nfo=    1      0.00000000      0.00000000      0.00000000      0.00000000      0.00000000      0.00000000     -0.00000000
 spin=   2 iter=  17 nfo=    2      0.00087899      0.00192074     -0.00052087     -0.00052088     -0.00000000     -0.00000000      0.00000000
 spin=   2 iter=  17 nfo=    3      0.00087895     -0.00052088      0.00192071     -0.00052088      0.00000000      0.00000000     -0.00000000
 spin=   2 iter=  17 nfo=    4      0.00087898     -0.00052088     -0.00052087      0.00192073      0.00000000      0.00000000     -0.00000000
 spin=   2 iter=  18 nfo=    1      0.00000000      0.00000000      0.00000000      0.00000000      0.00000000     -0.00000000      0.00000000
 spin=   2 iter=  18 nfo=    2      0.00087899      0.00191364     -0.00051025     -0.00052440     -0.00000000      0.00000000      0.00000000
 spin=   2 iter=  18 nfo=    3      0.00087896     -0.00051026      0.00190482     -0.00051560      0.00000000      0.00000000      0.00000000
 spin=   2 iter=  18 nfo=    4      0.00087897     -0.00052441     -0.00051560      0.00191897      0.00000000     -0.00000000     -0.00000000
 spin=   2 iter=  19 nfo=    1      0.00000000      0.00000000      0.00000000      0.00000000      0.00000000      0.00000000     -0.00000000
 spin=   2 iter=  19 nfo=    2      0.00087899      0.00192074     -0.00052087     -0.00052088     -0.00000000     -0.00000000      0.00000000
 spin=   2 iter=  19 nfo=    3      0.00087895     -0.00052088      0.00192071     -0.00052088      0.00000000      0.00000000     -0.00000000
 spin=   2 iter=  19 nfo=    4      0.00087898     -0.00052088     -0.00052087      0.00192073      0.00000000      0.00000000     -0.00000000
 spin=   2 iter=  20 nfo=    1      0.00000000      0.00000000      0.00000000      0.00000000      0.00000000      0.00000000      0.00000000
 spin=   2 iter=  20 nfo=    2      0.00034017      0.00087149     -0.00037036     -0.00016114      0.00000038     -0.00000021      0.00000001
 spin=   2 iter=  20 nfo=    3      0.00093465     -0.00023306      0.00132772     -0.00015905     -0.00000038      0.00000000     -0.00000059
 spin=   2 iter=  20 nfo=    4      0.00000755     -0.00023480     -0.00036828      0.00060983      0.00000000      0.00000021      0.00000059
 spin=   1 iter=   1 nfo=    1      0.00904154      0.00904154
 spin=   1 iter=   1 nfo=    2      0.00286979      0.00286979
 spin=   2 iter=   1 nfo=    1      0.00000000      0.00000000      0.00000000      0.00000000     -0.00000000      0.00000000      0.00000000
 spin=   2 iter=   1 nfo=    2      0.25341281      0.60262849     -0.17318638     -0.17601349     -0.00047585      0.00004327      0.00041677
 spin=   2 iter=   1 nfo=    3      0.33751920     -0.17012218      0.66398145     -0.15636395      0.00028132     -0.00002563     -0.00023181
 spin=   2 iter=   1 nfo=    4      0.26402403     -0.16333912     -0.17644698      0.60381605      0.00013591     -0.00001192     -0.00012992
 spin=   2 iter=   2 nfo=    1      0.00000000      0.00000000      0.00000000      0.00000000      0.00000000      0.00000000      0.00000000
 spin=   2 iter=   2 nfo=    2      0.00434071     -0.00276105      0.00561921      0.00149334     -0.00000829     -0.00000192     -0.00000058
 spin=   2 iter=   2 nfo=    3      0.01152419     -0.00047276      0.01293381     -0.00092384     -0.00000730      0.00000000     -0.00000573
 spin=   2 iter=   2 nfo=    4      0.00065091      0.00069458      0.00510668     -0.00514522     -0.00000070      0.00000187     -0.00000631
 spin=   2 iter=   3 nfo=    1      0.00000000      0.00000000      0.00000000      0.00000000      0.00000000      0.00000000      0.00000000
 spin=   2 iter=   3 nfo=    2      0.00240616     -0.00399685      0.00489393      0.00151740     -0.00000678     -0.00000113     -0.00000041
 spin=   2 iter=   3 nfo=    3      0.01062968     -0.00074085      0.01244760     -0.00106571     -0.00000616      0.00000001     -0.00000520
 spin=   2 iter=   3 nfo=    4      0.00029830      0.00102172      0.00474038     -0.00545871     -0.00000054      0.00000112     -0.00000568
 spin=   2 iter=   4 nfo=    1      0.00000000      0.00000000     -0.00000000      0.00000000      0.00000000      0.00000000      0.00000000
 spin=   2 iter=   4 nfo=    2      0.00928482      0.01146463      0.00128775     -0.00345732     -0.00001178      0.00000062      0.00000093
 spin=   2 iter=   4 nfo=    3      0.01684565      0.00458346      0.00713511      0.00515247     -0.00001245     -0.00000001     -0.00001293
 spin=   2 iter=   4 nfo=    4      0.01063685     -0.00294960      0.00123502      0.01236342      0.00000077     -0.00000061     -0.00001215
 spin=   2 iter=   5 nfo=    1      0.00000000      0.00000000      0.00000000      0.00000000      0.00000000      0.00000000      0.00000000
 spin=   2 iter=   5 nfo=    2      0.00132651      0.00639330     -0.00291281     -0.00215742      0.00000248      0.00000095      0.00000002
 spin=   2 iter=   5 nfo=    3      0.00616366     -0.00149483      0.00957974     -0.00191738     -0.00000239      0.00000001     -0.00000149
 spin=   2 iter=   5 nfo=    4      0.00317853     -0.00165602     -0.00286794      0.00770183      0.00000006     -0.00000094      0.00000154
 spin=   2 iter=   6 nfo=    1      0.00000000      0.00000000      0.00000000      0.00000000      0.00000000      0.00000000      0.00000000
 spin=   2 iter=   6 nfo=    2      0.00831211      0.01079023     -0.00006884     -0.00240189     -0.00000671     -0.00000090      0.00000021
 spin=   2 iter=   6 nfo=    3      0.00655737      0.00373242     -0.00033002      0.00316804     -0.00000695     -0.00000001     -0.00000612
 spin=   2 iter=   6 nfo=    4      0.00635691     -0.00302050     -0.00007347      0.00945564      0.00000028      0.00000091     -0.00000595
 spin=   2 iter=   7 nfo=    1      0.00000000      0.00000000      0.00000000      0.00000000      0.00000000      0.00000000      0.00000000
 spin=   2 iter=   7 nfo=    2      0.00544481      0.00898518     -0.00155221     -0.00198539     -0.00000186     -0.00000092      0.00000001
 spin=   2 iter=   7 nfo=    3      0.00145417     -0.00258191      0.00609475     -0.00206145      0.00000184      0.00000001      0.00000093
 spin=   2 iter=   7 nfo=    4      0.00345308     -0.00253708     -0.00158370      0.00757383      0.00000004      0.00000092     -0.00000094
 spin=   2 iter=   8 nfo=    1      0.00000000      0.00000000      0.00000000      0.00000000      0.00000000      0.00000000      0.00000000
 spin=   2 iter=   8 nfo=    2      0.00519146      0.00864100     -0.00169350     -0.00175354     -0.00000133     -0.00000117     -0.00000000
 spin=   2 iter=   8 nfo=    3      0.00223090     -0.00243869      0.00645706     -0.00178896      0.00000131      0.00000002      0.00000015
 spin=   2 iter=   8 nfo=    4      0.00260707     -0.00244007     -0.00172870      0.00677480      0.00000002      0.00000117     -0.00000016
 spin=   2 iter=   9 nfo=    1      0.00000000      0.00000000      0.00000000      0.00000000      0.00000000      0.00000000      0.00000000
 spin=   2 iter=   9 nfo=    2      0.00314505      0.00578519     -0.00247979     -0.00015924      0.00000155     -0.00000280      0.00000014
 spin=   2 iter=   9 nfo=    3      0.00701362     -0.00144330      0.00861085     -0.00014818     -0.00000153      0.00000005     -0.00000427
 spin=   2 iter=   9 nfo=    4      0.00371685      0.00168041      0.00268674     -0.00064317     -0.00000002     -0.00000279     -0.00000431
 spin=   2 iter=  10 nfo=    1      0.00000000      0.00000000     -0.00000000      0.00000000     -0.00000000     -0.00000000     -0.00000000
 spin=   2 iter=  10 nfo=    2      0.01487927      0.01505998      0.00077688     -0.00094691     -0.00000621     -0.00000443     -0.00000004
 spin=   2 iter=  10 nfo=    3      0.00679088      0.00351694      0.00248147      0.00080098     -0.00000664      0.00000010     -0.00000198
 spin=   2 iter=  10 nfo=    4      0.00018033     -0.00372572      0.00069616      0.00320748     -0.00000028      0.00000463     -0.00000193
 spin=   1 iter=   1 nfo=    1      0.00017826      0.00017826
 spin=   1 iter=   1 nfo=    2      0.00001984      0.00001984
 spin=   2 iter=   1 nfo=    1      0.00000000      0.00000000      0.00000000      0.00000000      0.00000000     -0.00000000      0.00000000
 spin=   2 iter=   1 nfo=    2      0.07103660      0.15231910     -0.04013854     -0.04114397     -0.00000000      0.00000000      0.00000000
 spin=   2 iter=   1 nfo=    3      0.07103637     -0.04013857      0.15222970     -0.04105476      0.00000000      0.00000000      0.00000000
 spin=   2 iter=   1 nfo=    4      0.07103650     -0.04114398     -0.04105473      0.15323522      0.00000000     -0.00000000     -0.00000000
 spin=   2 iter=   2 nfo=    1      0.00000000      0.00000000      0.00000000      0.00000000     -0.00000000      0.00000000     -0.00000000
 spin=   2 iter=   2 nfo=    2      0.00003130      0.00006797     -0.00001856     -0.00001811      0.00000000     -0.00000000      0.00000000
 spin=   2 iter=   2 nfo=    3      0.00003125     -0.00001857      0.00006836     -0.00001854     -0.00000000      0.00000000     -0.00000000
 spin=   2 iter=   2 nfo=    4      0.00003128     -0.00001812     -0.00001853      0.00006793      0.00000000      0.00000000      0.00000000
 spin=   1 iter=   1 nfo=    1      0.00017826      0.00017826
 spin=   1 iter=   1 nfo=    2      0.00001984      0.00001984
 spin=   2 iter=   1 nfo=    1      0.00000000      0.00000000      0.00000000      0.00000000      0.00000000     -0.00000000      0.00000000
 spin=   2 iter=   1 nfo=    2      0.07103660      0.15231910     -0.04013854     -0.04114397     -0.00000000      0.00000000      0.00000000
 spin=   2 iter=   1 nfo=    3      0.07103637     -0.04013857      0.15222970     -0.04105476      0.00000000      0.00000000      0.00000000
 spin=   2 iter=   1 nfo=    4      0.07103650     -0.04114398     -0.04105473      0.15323522      0.00000000     -0.00000000     -0.00000000
 spin=   2 iter=   2 nfo=    1      0.00000000      0.00000000      0.00000000      0.00000000     -0.00000000      0.00000000     -0.00000000
 spin=   2 iter=   2 nfo=    2      0.00003130      0.00006797     -0.00001856     -0.00001811      0.00000000     -0.00000000      0.00000000
 spin=   2 iter=   2 nfo=    3      0.00003125     -0.00001857      0.00006836     -0.00001854     -0.00000000      0.00000000     -0.00000000
 spin=   2 iter=   2 nfo=    4      0.00003128     -0.00001812     -0.00001853      0.00006793      0.00000000      0.00000000      0.00000000
 spin=   1 iter=   1 nfo=    1      0.00017826      0.00017826
 spin=   1 iter=   1 nfo=    2      0.00001984      0.00001984
 spin=   2 iter=   1 nfo=    1      0.00000000      0.00000000      0.00000000      0.00000000      0.00000000     -0.00000000      0.00000000
 spin=   2 iter=   1 nfo=    2      0.07103660      0.15231910     -0.04013854     -0.04114397     -0.00000000      0.00000000      0.00000000
 spin=   2 iter=   1 nfo=    3      0.07103637     -0.04013857      0.15222970     -0.04105476      0.00000000      0.00000000      0.00000000
 spin=   2 iter=   1 nfo=    4      0.07103650     -0.04114398     -0.04105473      0.15323522      0.00000000     -0.00000000     -0.00000000
 spin=   2 iter=   2 nfo=    1      0.00000000      0.00000000      0.00000000      0.00000000     -0.00000000      0.00000000     -0.00000000
 spin=   2 iter=   2 nfo=    2      0.00003130      0.00006797     -0.00001856     -0.00001811      0.00000000     -0.00000000      0.00000000
 spin=   2 iter=   2 nfo=    3      0.00003125     -0.00001857      0.00006836     -0.00001854     -0.00000000      0.00000000     -0.00000000
 spin=   2 iter=   2 nfo=    4      0.00003128     -0.00001812     -0.00001853      0.00006793      0.00000000      0.00000000      0.00000000
 spin=   1 iter=   1 nfo=    1      0.00017826      0.00017826
 spin=   1 iter=   1 nfo=    2      0.00001984      0.00001984
 spin=   2 iter=   1 nfo=    1      0.00000000      0.00000000      0.00000000      0.00000000      0.00000000     -0.00000000      0.00000000
 spin=   2 iter=   1 nfo=    2      0.07103660      0.15231910     -0.04013854     -0.04114397     -0.00000000      0.00000000      0.00000000
 spin=   2 iter=   1 nfo=    3      0.07103637     -0.04013857      0.15222970     -0.04105476      0.00000000      0.00000000      0.00000000
 spin=   2 iter=   1 nfo=    4      0.07103650     -0.04114398     -0.04105473      0.15323522      0.00000000     -0.00000000     -0.00000000
 spin=   2 iter=   2 nfo=    1      0.00000000      0.00000000      0.00000000      0.00000000     -0.00000000      0.00000000     -0.00000000
 spin=   2 iter=   2 nfo=    2      0.00003130      0.00006797     -0.00001856     -0.00001811      0.00000000     -0.00000000      0.00000000
 spin=   2 iter=   2 nfo=    3      0.00003125     -0.00001857      0.00006836     -0.00001854     -0.00000000      0.00000000     -0.00000000
 spin=   2 iter=   2 nfo=    4      0.00003128     -0.00001812     -0.00001853      0.00006793      0.00000000      0.00000000      0.00000000
