 spin=   1 iter=   1  0.16179316E-01     -0.00000000     -0.01981554     -0.01981553
 spin=   1 iter=   1  0.16179316E-01     -0.00000000     -0.01981554     -0.01981553
 spin=   1 iter=   1  0.16179316E-01     -0.00000000     -0.01981554     -0.01981553
 spin=   1 iter=   1  0.16179316E-01     -0.00000000     -0.01981554     -0.01981553
 spin=   1 iter=   1  0.16179316E-01     -0.00000000     -0.01981554     -0.01981553
 spin=   1 iter=   1  0.16179316E-01     -0.00000000     -0.01981554     -0.01981553
 spin=   1 iter=   1  0.16179316E-01     -0.00000000     -0.01981554     -0.01981553
 spin=   1 iter=   1  0.16179316E-01     -0.00000000     -0.01981554     -0.01981553
 spin=   1 iter=   1  0.16179316E-01     -0.00000000     -0.01981554     -0.01981553
 spin=   1 iter=   1  0.16179316E-01     -0.00000000     -0.01981554     -0.01981553
 spin=   1 iter=   1  0.16179316E-01     -0.00000000     -0.01981554     -0.01981553
 spin=   1 iter=   1  0.16179316E-01     -0.00000000     -0.01981554     -0.01981553
 spin=   1 iter=   1  0.16179316E-01     -0.00000000     -0.01981554     -0.01981553
 spin=   1 iter=   1  0.16179316E-01     -0.00000000     -0.01981554     -0.01981553
 spin=   1 iter=   1  0.16179316E-01     -0.00000000     -0.01981554     -0.01981553
 spin=   1 iter=   1  0.16179316E-01     -0.00000000     -0.01981554     -0.01981553
 spin=   1 iter=   1  0.16179316E-01     -0.00000000     -0.01981554     -0.01981553
 spin=   1 iter=   1  0.16179316E-01     -0.00000000     -0.01981554     -0.01981553
 spin=   1 iter=   1  0.16179316E-01     -0.00000000     -0.01981554     -0.01981553
 spin=   1 iter=   1  0.72056320E-01      0.00000000      0.08825061      0.08825061
 spin=   1 iter=   2  0.79339805E-02      0.00000000      0.00971710      0.00971710
 spin=   1 iter=   1  0.72054645E-01      0.00000000      0.08824856      0.08824856
 spin=   1 iter=   2  0.79323923E-02     -0.00000000      0.00971516      0.00971516
 spin=   1 iter=   1  0.80544053E-02      0.00805441
 spin=   1 iter=   1  0.10556778E-01      0.01055678
 spin=   1 iter=   1  0.10556778E-01      0.01055678
 spin=   1 iter=   1  0.10556778E-01      0.01055678
 spin=   1 iter=   1  0.10556778E-01      0.01055678
 spin=   1 iter=   1  0.10556778E-01      0.01055678
 spin=   2 iter=   1  0.72776197E-01     -0.10292113     -0.10292104     -0.10292109      0.00000000      0.00000000     -0.00000000
 spin=   2 iter=   2  0.97180252E-02      0.01374350      0.01374322      0.01374336      0.00000001      0.00000000     -0.00000001
 spin=   2 iter=   3  0.95403535E-02      0.01349222      0.01349197      0.01349210      0.00000000      0.00000000     -0.00000000
 spin=   2 iter=   4  0.87915257E-02      0.01243312      0.01243307      0.01243310      0.00000000      0.00000001      0.00000001
 spin=   2 iter=   5  0.93890072E-02      0.01327816      0.01327796      0.01327806      0.00000000     -0.00000000     -0.00000000
 spin=   2 iter=   6  0.92680870E-02      0.01310714      0.01310697      0.01310706      0.00000000     -0.00000000     -0.00000000
 spin=   2 iter=   7  0.91715553E-02      0.01297061      0.01297046      0.01297054      0.00000000      0.00000000     -0.00000000
 spin=   2 iter=   8  0.92478872E-02      0.01307857      0.01307842      0.01307847      0.00000000      0.00000000      0.00000000
 spin=   2 iter=   9  0.92680870E-02      0.01310714      0.01310697      0.01310706      0.00000000     -0.00000000     -0.00000000
 spin=   2 iter=  10  0.90798233E-02      0.01284087      0.01284074      0.01284082      0.00000000     -0.00000000     -0.00000000
 spin=   2 iter=  11  0.92289969E-02      0.01305187      0.01305168      0.01305176      0.00000000      0.00000000     -0.00000000
 spin=   2 iter=  12  0.92598607E-02      0.01309551      0.01309533      0.01309543      0.00000001      0.00000000     -0.00000000
 spin=   2 iter=  13  0.92663526E-02      0.01310469      0.01310451      0.01310460      0.00000000      0.00000000      0.00000000
 spin=   2 iter=  14  0.92677282E-02      0.01310664      0.01310646      0.01310655      0.00000000      0.00000000      0.00000000
 spin=   2 iter=  15  0.92680163E-02      0.01310704      0.01310686      0.01310696      0.00000000      0.00000000      0.00000000
 spin=   2 iter=  16  0.92680747E-02      0.01310712      0.01310695      0.01310704      0.00000000      0.00000000      0.00000000
 spin=   2 iter=  17  0.92680840E-02      0.01310714      0.01310693      0.01310708      0.00000002     -0.00000001     -0.00000003
 spin=   2 iter=  18  0.92680836E-02      0.01310715      0.01310696      0.01310703      0.00000000     -0.00000000     -0.00000000
 spin=   2 iter=  19  0.92680840E-02      0.01310714      0.01310693      0.01310708      0.00000002     -0.00000001     -0.00000003
 spin=   2 iter=  20  0.26256054E-02      0.00325746      0.00506265      0.00226273     -0.00001951      0.00001082      0.00003033
 spin=   1 iter=   1  0.10556778E-01      0.01055678
 spin=   2 iter=   1  0.72776197E-01     -0.10292113     -0.10292104     -0.10292109      0.00000000      0.00000000     -0.00000000
 spin=   2 iter=   2  0.97180252E-02      0.01374350      0.01374322      0.01374336      0.00000001      0.00000000     -0.00000001
 spin=   2 iter=   3  0.95403535E-02      0.01349222      0.01349197      0.01349210      0.00000000      0.00000000     -0.00000000
 spin=   2 iter=   4  0.87915257E-02      0.01243312      0.01243307      0.01243310      0.00000000      0.00000001      0.00000001
 spin=   2 iter=   5  0.93890072E-02      0.01327816      0.01327796      0.01327806      0.00000000     -0.00000000     -0.00000000
 spin=   2 iter=   6  0.92680870E-02      0.01310714      0.01310697      0.01310706      0.00000000     -0.00000000     -0.00000000
 spin=   2 iter=   7  0.91715553E-02      0.01297061      0.01297046      0.01297054      0.00000000      0.00000000     -0.00000000
 spin=   2 iter=   8  0.92478872E-02      0.01307857      0.01307842      0.01307847      0.00000000      0.00000000      0.00000000
 spin=   2 iter=   9  0.92680870E-02      0.01310714      0.01310697      0.01310706      0.00000000     -0.00000000     -0.00000000
 spin=   2 iter=  10  0.90798233E-02      0.01284087      0.01284074      0.01284082      0.00000000     -0.00000000     -0.00000000
 spin=   2 iter=  11  0.92289969E-02      0.01305187      0.01305168      0.01305176      0.00000000      0.00000000     -0.00000000
 spin=   2 iter=  12  0.92598607E-02      0.01309551      0.01309533      0.01309543      0.00000001      0.00000000     -0.00000000
 spin=   2 iter=  13  0.92663526E-02      0.01310469      0.01310451      0.01310460      0.00000000      0.00000000      0.00000000
 spin=   2 iter=  14  0.92677282E-02      0.01310664      0.01310646      0.01310655      0.00000000      0.00000000      0.00000000
 spin=   2 iter=  15  0.92680163E-02      0.01310704      0.01310686      0.01310696      0.00000000      0.00000000      0.00000000
 spin=   2 iter=  16  0.92680747E-02      0.01310712      0.01310695      0.01310704      0.00000000      0.00000000      0.00000000
 spin=   2 iter=  17  0.92680840E-02      0.01310714      0.01310693      0.01310708      0.00000002     -0.00000001     -0.00000003
 spin=   2 iter=  18  0.92680836E-02      0.01310715      0.01310696      0.01310703      0.00000000     -0.00000000     -0.00000000
 spin=   2 iter=  19  0.92680840E-02      0.01310714      0.01310693      0.01310708      0.00000002     -0.00000001     -0.00000003
 spin=   2 iter=  20  0.26256054E-02      0.00325746      0.00506265      0.00226273     -0.00001951      0.00001082      0.00003033
 spin=   1 iter=   1  0.19943148E-03      0.00019943
 spin=   2 iter=   1  0.53260127E-01     -0.07532124     -0.07532115     -0.07532119      0.00000000      0.00000000      0.00000000
 spin=   2 iter=   2  0.34072177E-03      0.00048202      0.00048169      0.00048185      0.00000001      0.00000000     -0.00000000
 spin=   1 iter=   1  0.10556778E-01      0.01055678
 spin=   2 iter=   1  0.72776197E-01     -0.10292113     -0.10292104     -0.10292109      0.00000000      0.00000000     -0.00000000
 spin=   2 iter=   2  0.97180252E-02      0.01374350      0.01374322      0.01374336      0.00000001      0.00000000     -0.00000001
 spin=   2 iter=   3  0.95403535E-02      0.01349222      0.01349197      0.01349210      0.00000000      0.00000000     -0.00000000
 spin=   2 iter=   4  0.87915257E-02      0.01243312      0.01243307      0.01243310      0.00000000      0.00000001      0.00000001
 spin=   2 iter=   5  0.93890072E-02      0.01327816      0.01327796      0.01327806      0.00000000     -0.00000000     -0.00000000
 spin=   2 iter=   6  0.92680870E-02      0.01310714      0.01310697      0.01310706      0.00000000     -0.00000000     -0.00000000
 spin=   2 iter=   7  0.91715553E-02      0.01297061      0.01297046      0.01297054      0.00000000      0.00000000     -0.00000000
 spin=   2 iter=   8  0.92478872E-02      0.01307857      0.01307842      0.01307847      0.00000000      0.00000000      0.00000000
 spin=   2 iter=   9  0.92680870E-02      0.01310714      0.01310697      0.01310706      0.00000000     -0.00000000     -0.00000000
 spin=   2 iter=  10  0.90798233E-02      0.01284087      0.01284074      0.01284082      0.00000000     -0.00000000     -0.00000000
 spin=   2 iter=  11  0.92289969E-02      0.01305187      0.01305168      0.01305176      0.00000000      0.00000000     -0.00000000
 spin=   2 iter=  12  0.92598607E-02      0.01309551      0.01309533      0.01309543      0.00000001      0.00000000     -0.00000000
 spin=   2 iter=  13  0.92663526E-02      0.01310469      0.01310451      0.01310460      0.00000000      0.00000000      0.00000000
 spin=   2 iter=  14  0.92677282E-02      0.01310664      0.01310646      0.01310655      0.00000000      0.00000000      0.00000000
 spin=   2 iter=  15  0.92680163E-02      0.01310704      0.01310686      0.01310696      0.00000000      0.00000000      0.00000000
 spin=   2 iter=  16  0.92680747E-02      0.01310712      0.01310695      0.01310704      0.00000000      0.00000000      0.00000000
 spin=   2 iter=  17  0.92680840E-02      0.01310714      0.01310693      0.01310708      0.00000002     -0.00000001     -0.00000003
 spin=   2 iter=  18  0.92680836E-02      0.01310715      0.01310696      0.01310703      0.00000000     -0.00000000     -0.00000000
 spin=   2 iter=  19  0.92680840E-02      0.01310714      0.01310693      0.01310708      0.00000002     -0.00000001     -0.00000003
 spin=   2 iter=  20  0.26256054E-02      0.00325746      0.00506265      0.00226273     -0.00001951      0.00001082      0.00003033
 spin=   1 iter=   1  0.53861557E-01      0.05386156
 spin=   2 iter=   1  0.17280296E+00     -0.23505847     -0.25921683     -0.23815818      0.00006771      0.00000643     -0.00006049
 spin=   2 iter=   2  0.32710905E-01      0.01024093      0.07675327      0.02058241     -0.00050942     -0.00009080      0.00041861
 spin=   2 iter=   3  0.30446707E-01      0.01537647      0.06962050      0.02186904     -0.00041677     -0.00005607      0.00036069
 spin=   2 iter=   4  0.30804579E-01      0.04831613     -0.02015786      0.05433273      0.00056954     -0.00004117     -0.00061071
 spin=   2 iter=   5  0.24278235E-01      0.02542866      0.04338419      0.03174525     -0.00014141     -0.00005121      0.00009020
 spin=   2 iter=   6  0.23368145E-01      0.04398445      0.00103939      0.03661292      0.00034201      0.00005352     -0.00028849
 spin=   2 iter=   7  0.20597539E-01      0.03504026      0.02244668      0.02852830      0.00009829      0.00005004     -0.00004825
 spin=   2 iter=   8  0.18792148E-01      0.03185168      0.02299762      0.02398834      0.00006829      0.00006049     -0.00000780
 spin=   2 iter=   9  0.13001502E-01      0.01685600      0.02696412      0.00172929     -0.00007337      0.00011727      0.00019064
 spin=   2 iter=  10  0.11549017E-01     -0.02707953      0.00518678     -0.00632410     -0.00022783     -0.00015116      0.00007668
 spin=   1 iter=   1  0.65814635E-03     -0.00065815
 spin=   2 iter=   1  0.52915910E-01     -0.07483444     -0.07483435     -0.07483440      0.00000000     -0.00000000     -0.00000000
 spin=   2 iter=   2  0.33278897E-03      0.00047078      0.00047047      0.00047065     -0.00000000      0.00000000      0.00000001
 spin=   1 iter=   1  0.65814635E-03     -0.00065815
 spin=   2 iter=   1  0.52915910E-01     -0.07483444     -0.07483435     -0.07483440      0.00000000     -0.00000000     -0.00000000
 spin=   2 iter=   2  0.33278897E-03      0.00047078      0.00047047      0.00047065     -0.00000000      0.00000000      0.00000001
 spin=   1 iter=   1  0.65814635E-03     -0.00065815
 spin=   2 iter=   1  0.52915910E-01     -0.07483444     -0.07483435     -0.07483440      0.00000000     -0.00000000     -0.00000000
 spin=   2 iter=   2  0.33278897E-03      0.00047078      0.00047047      0.00047065     -0.00000000      0.00000000      0.00000001
 spin=   1 iter=   1  0.65814635E-03     -0.00065815
 spin=   2 iter=   1  0.52915910E-01     -0.07483444     -0.07483435     -0.07483440      0.00000000     -0.00000000     -0.00000000
 spin=   2 iter=   2  0.33278897E-03      0.00047078      0.00047047      0.00047065     -0.00000000      0.00000000      0.00000001
