   5
# data nr     9  (natoms,nloc)=    1    4
C      0.00000000      0.00000000      0.00000000
X      0.02145308     -0.11269253      0.04709045
X      0.03413812     -0.04592122     -0.08741053
X      0.04919150     -0.12576554      0.11748596
X     -0.13466414      0.13927034      0.05154533
