 Oxygen  
 NWCHEM Coul        ERKALE COUL   ERKALE XC     NWCHEM  XC    
  1     -0.66110931 0.67974594    0.66766274    -0.68055393    
  2     -0.66833154 0.68462284    0.67096326    -0.68174905    
  3     -2.35552797 2.34103602    1.50114953    -1.66138139    
  4     -0.66908414 0.68077563    0.66680047    -0.68033884    
  5     -0.65344716 0.68797069    0.90213292    -1.03908314    
