#  iter FOD      Fx(Ha/Bohr)        Fy(Ha/Bohr)        Fz(Ha/Bohr)
    1    1     0.000004233308     0.000000140576     0.000006531599
    1    2    -0.028199626013    -0.007838397671    -0.040436939143
    1    3     0.018732910180     0.045415419029     0.008963149745
    1    4     0.009471302365    -0.037588054861     0.031485847130
#  iter FOD      Fx(Ha/Bohr)        Fy(Ha/Bohr)        Fz(Ha/Bohr)
    1    1     0.000000000000    -0.000000000000    -0.000000000000
    1    2     0.000001480108    -0.000000422985    -0.000065890682
#  iter FOD      Fx(Ha/Bohr)        Fy(Ha/Bohr)        Fz(Ha/Bohr)
    1    1     0.000004233308     0.000000140576     0.000006531599
    1    2    -0.028199626013    -0.007838397671    -0.040436939143
    1    3     0.018732910180     0.045415419029     0.008963149745
    1    4     0.009471302365    -0.037588054861     0.031485847130
#  iter FOD      Fx(Ha/Bohr)        Fy(Ha/Bohr)        Fz(Ha/Bohr)
    1    1     0.000000000000    -0.000000000000    -0.000000000000
    1    2     0.000001480108    -0.000000422985    -0.000065890682
#  iter FOD      Fx(Ha/Bohr)        Fy(Ha/Bohr)        Fz(Ha/Bohr)
    1    1     0.000004233308     0.000000140576     0.000006531599
    1    2    -0.028199626013    -0.007838397671    -0.040436939143
    1    3     0.018732910180     0.045415419029     0.008963149745
    1    4     0.009471302365    -0.037588054861     0.031485847130
#  iter FOD      Fx(Ha/Bohr)        Fy(Ha/Bohr)        Fz(Ha/Bohr)
    1    1     0.000000000000    -0.000000000000    -0.000000000000
    1    2     0.000001480108    -0.000000422985    -0.000065890682
#  iter FOD      Fx(Ha/Bohr)        Fy(Ha/Bohr)        Fz(Ha/Bohr)
    1    1     0.000004233308     0.000000140576     0.000006531599
    1    2    -0.028199626013    -0.007838397671    -0.040436939143
    1    3     0.018732910180     0.045415419029     0.008963149745
    1    4     0.009471302365    -0.037588054861     0.031485847130
#  iter FOD      Fx(Ha/Bohr)        Fy(Ha/Bohr)        Fz(Ha/Bohr)
    1    1     0.000000000000    -0.000000000000    -0.000000000000
    1    2     0.000001480108    -0.000000422985    -0.000065890682
#  iter FOD      Fx(Ha/Bohr)        Fy(Ha/Bohr)        Fz(Ha/Bohr)
    1    1     0.000150849886     0.003797175865    -0.000002320280
    1    2    -0.002844762823    -0.000875028971    -0.000001710709
    1    3     0.002732068858    -0.001121313398    -0.000001697391
    1    4     0.000002103207     0.000110245415     0.099752402892
    1    5     0.000005076111     0.000304840587    -0.016903182449
    1    6     0.000005093773     0.000305742147     0.016903228343
    1    7     0.000002074083     0.000109822578    -0.099760854924
#  iter FOD      Fx(Ha/Bohr)        Fy(Ha/Bohr)        Fz(Ha/Bohr)
    1    1     0.000255703815     0.004756455214     0.034611448731
    1    2    -0.001210314740    -0.022512957108    -0.027586323605
    1    3     0.022405824941     0.416769491534    -0.855646143953
    1    4     0.008127896342     0.151184413439     0.088383109929
    1    5     0.000438998843     0.008165613782    -0.028561038671
#  iter FOD      Fx(Ha/Bohr)        Fy(Ha/Bohr)        Fz(Ha/Bohr)
    2    1    -0.000028139182    -0.000523255974     0.031459261365
    2    2    -0.000345217118    -0.006421302211     0.002582091733
    2    3    -0.000847631549    -0.015766639835    -0.015160321856
    2    4     0.001881533654     0.034997790792     0.039141150001
    2    5     0.000110914053     0.002062952393    -0.034725296799
#  iter FOD      Fx(Ha/Bohr)        Fy(Ha/Bohr)        Fz(Ha/Bohr)
    3    1    -0.000072850518    -0.001354867061     0.041147133918
    3    2    -0.000326098004    -0.006065667973     0.003563421968
    3    3    -0.000715233455    -0.013303932523    -0.013206396006
    3    4     0.000950022288     0.017671022384     0.023573089905
    3    5     0.000090161724     0.001676917038    -0.038546152996
#  iter FOD      Fx(Ha/Bohr)        Fy(Ha/Bohr)        Fz(Ha/Bohr)
    4    1     0.003126140559     0.058139473984    -1.854676450056
    4    2    -0.000599182071    -0.011145496786    -0.050254871514
    4    3    -0.001903771746    -0.035410766395     0.269763517896
    4    4     0.001273358925     0.023684771260    -0.178430012083
    4    5    -0.004457982416    -0.082917043881     1.208153887501
#  iter FOD      Fx(Ha/Bohr)        Fy(Ha/Bohr)        Fz(Ha/Bohr)
    5    1    -0.000095834838    -0.001782373871     0.044523607548
    5    2    -0.000316841158    -0.005893481823     0.003869875161
    5    3    -0.000653718570    -0.012159705815    -0.012022203314
    5    4     0.000723535406     0.013458209453     0.020223806533
    5    5     0.000082477203     0.001533974843    -0.038638306156
#  iter FOD      Fx(Ha/Bohr)        Fy(Ha/Bohr)        Fz(Ha/Bohr)
    6    1    -0.000390939752    -0.007271805157    -0.005813147598
    6    2    -0.000188819769    -0.003512164795     0.005940448828
    6    3     0.000710561564     0.013217111440     0.025931905430
    6    4    -0.000684462660    -0.012731517008    -0.003661427275
    6    5    -0.000366841389    -0.006823245372     0.078036127817
#  iter FOD      Fx(Ha/Bohr)        Fy(Ha/Bohr)        Fz(Ha/Bohr)
    7    1    -0.000224642628    -0.004178288652     0.045481639314
    7    2    -0.000258931253    -0.004816303116     0.005281263049
    7    3    -0.000183442797    -0.003412175082    -0.000908667417
    7    4    -0.000130412566    -0.002425806210     0.007721620687
    7    5    -0.000033311286    -0.000619698866    -0.015485324516
#  iter FOD      Fx(Ha/Bohr)        Fy(Ha/Bohr)        Fz(Ha/Bohr)
    8    1     0.004536961024     0.084380326451    -2.102086483876
    8    2    -0.000309314335    -0.005753510031    -0.000699230247
    8    3     0.001341334245     0.024949766527    -0.059626552614
    8    4    -0.000730591839    -0.013589296998     0.062492944345
    8    5    -0.000268582065    -0.004995652783     0.049554800435
#  iter FOD      Fx(Ha/Bohr)        Fy(Ha/Bohr)        Fz(Ha/Bohr)
    1    1 58959.635164337938 27177.584800644745 79805.676669442808
    1    2 71806.498798064160 -2385.038048920796 83421.314318583318
    1    3 ****************** 93944.546081111097 ******************
    1    4 ****************** ****************** ******************
#  iter FOD      Fx(Ha/Bohr)        Fy(Ha/Bohr)        Fz(Ha/Bohr)
    1    1    -0.086234367824     0.061015054817     0.026399530220
    1    2     0.027116565415    -0.019186303749    -0.008301383505
#  iter FOD      Fx(Ha/Bohr)        Fy(Ha/Bohr)        Fz(Ha/Bohr)
    2    1    -0.038457884102     0.027210840511     0.011773376178
    2    2    -0.017953530377     0.012703002966     0.005496239800
#  iter FOD      Fx(Ha/Bohr)        Fy(Ha/Bohr)        Fz(Ha/Bohr)
    3    1    -0.055234552804     0.039081158858     0.016909337570
    3    2     0.018682561659    -0.013218830539    -0.005719421228
#  iter FOD      Fx(Ha/Bohr)        Fy(Ha/Bohr)        Fz(Ha/Bohr)
    4    1    -0.074456747484     0.052681814656     0.022793964597
    4    2     0.022480634915    -0.015906157679    -0.006882153165
#  iter FOD      Fx(Ha/Bohr)        Fy(Ha/Bohr)        Fz(Ha/Bohr)
    5    1    -0.056372740176     0.039886494318     0.017257781892
    5    2    -0.026384877371     0.018668601033     0.008077389500
#  iter FOD      Fx(Ha/Bohr)        Fy(Ha/Bohr)        Fz(Ha/Bohr)
    6    1    -0.053850863581     0.038102128790     0.016485739874
    6    2    -0.030105199375     0.021300904838     0.009216315888
#  iter FOD      Fx(Ha/Bohr)        Fy(Ha/Bohr)        Fz(Ha/Bohr)
    7    1    -0.074684206343     0.052842744550     0.022863597385
    7    2     0.015465552446    -0.010942631599    -0.004734574815
#  iter FOD      Fx(Ha/Bohr)        Fy(Ha/Bohr)        Fz(Ha/Bohr)
    8    1    -0.086184109515     0.060979495705     0.026384144623
    8    2     0.027092602734    -0.019169347830    -0.008294047209
#  iter FOD      Fx(Ha/Bohr)        Fy(Ha/Bohr)        Fz(Ha/Bohr)
    9    1    -0.086223763979     0.061007553010     0.026396279869
    9    2     0.027111510647    -0.019182721319    -0.008299834157
#  iter FOD      Fx(Ha/Bohr)        Fy(Ha/Bohr)        Fz(Ha/Bohr)
   10    1    -0.056934914185     0.040284251305     0.017429885090
   10    2    -0.027045073069     0.019135721404     0.008279499581
#  iter FOD      Fx(Ha/Bohr)        Fy(Ha/Bohr)        Fz(Ha/Bohr)
   11    1    -0.056935184202     0.040284442151     0.017429963213
   11    2    -0.027045376151     0.019135933315     0.008279591677
#  iter FOD      Fx(Ha/Bohr)        Fy(Ha/Bohr)        Fz(Ha/Bohr)
   12    1    -0.074782930278     0.052912594024     0.022893825766
   12    2     0.015437108716    -0.010922509994    -0.004725869998
#  iter FOD      Fx(Ha/Bohr)        Fy(Ha/Bohr)        Fz(Ha/Bohr)
   13    1    -0.053952590149     0.038174112653     0.016516881128
   13    2    -0.030472101780     0.021560512200     0.009328637956
#  iter FOD      Fx(Ha/Bohr)        Fy(Ha/Bohr)        Fz(Ha/Bohr)
   14    1    -0.056935278330     0.040284506923     0.017430002846
   14    2    -0.027045480993     0.019136011009     0.008279631443
#  iter FOD      Fx(Ha/Bohr)        Fy(Ha/Bohr)        Fz(Ha/Bohr)
   15    1    -0.086234373828     0.061015059291     0.026399527805
   15    2     0.027116569151    -0.019186307456    -0.008301382493
#  iter FOD      Fx(Ha/Bohr)        Fy(Ha/Bohr)        Fz(Ha/Bohr)
   16    1    -0.086234374607     0.061015058512     0.026399530220
   16    2     0.027116574788    -0.019186308387    -0.008301383505
#  iter FOD      Fx(Ha/Bohr)        Fy(Ha/Bohr)        Fz(Ha/Bohr)
   17    1    -0.086234367852     0.061015054817     0.026399530220
   17    2     0.027116565449    -0.019186303749    -0.008301383505
#  iter FOD      Fx(Ha/Bohr)        Fy(Ha/Bohr)        Fz(Ha/Bohr)
   18    1    -0.086234367824     0.061015054817     0.026399530220
   18    2     0.027116565415    -0.019186303749    -0.008301383505
#  iter FOD      Fx(Ha/Bohr)        Fy(Ha/Bohr)        Fz(Ha/Bohr)
   19    1    -0.086234367824     0.061015054817     0.026399530220
   19    2     0.027116565415    -0.019186303749    -0.008301383505
#  iter FOD      Fx(Ha/Bohr)        Fy(Ha/Bohr)        Fz(Ha/Bohr)
   20    1    -0.086234367824     0.061015054817     0.026399530220
   20    2     0.027116565415    -0.019186303749    -0.008301383505
#  iter FOD      Fx(Ha/Bohr)        Fy(Ha/Bohr)        Fz(Ha/Bohr)
   21    1    -0.086234367824     0.061015054817     0.026399530220
   21    2     0.027116565415    -0.019186303749    -0.008301383505
#  iter FOD      Fx(Ha/Bohr)        Fy(Ha/Bohr)        Fz(Ha/Bohr)
    1    1 58959.635164337938 27177.584800644745 79805.676669442808
    1    2 71806.498798064160 -2385.038048920796 83421.314318583318
    1    3 ****************** 93944.546081111097 ******************
    1    4 ****************** ****************** ******************
#  iter FOD      Fx(Ha/Bohr)        Fy(Ha/Bohr)        Fz(Ha/Bohr)
    1    1    -0.086234367824     0.061015054817     0.026399530220
    1    2     0.027116565415    -0.019186303749    -0.008301383505
#  iter FOD      Fx(Ha/Bohr)        Fy(Ha/Bohr)        Fz(Ha/Bohr)
    2    1    -0.038457884102     0.027210840511     0.011773376178
    2    2    -0.017953530377     0.012703002966     0.005496239800
#  iter FOD      Fx(Ha/Bohr)        Fy(Ha/Bohr)        Fz(Ha/Bohr)
    3    1    -0.055234552804     0.039081158858     0.016909337570
    3    2     0.018682561659    -0.013218830539    -0.005719421228
#  iter FOD      Fx(Ha/Bohr)        Fy(Ha/Bohr)        Fz(Ha/Bohr)
    4    1    -0.074456747484     0.052681814656     0.022793964597
    4    2     0.022480634915    -0.015906157679    -0.006882153165
#  iter FOD      Fx(Ha/Bohr)        Fy(Ha/Bohr)        Fz(Ha/Bohr)
    5    1    -0.056372740176     0.039886494318     0.017257781892
    5    2    -0.026384877371     0.018668601033     0.008077389500
#  iter FOD      Fx(Ha/Bohr)        Fy(Ha/Bohr)        Fz(Ha/Bohr)
    6    1    -0.053850863581     0.038102128790     0.016485739874
    6    2    -0.030105199375     0.021300904838     0.009216315888
#  iter FOD      Fx(Ha/Bohr)        Fy(Ha/Bohr)        Fz(Ha/Bohr)
    7    1    -0.074684206343     0.052842744550     0.022863597385
    7    2     0.015465552446    -0.010942631599    -0.004734574815
#  iter FOD      Fx(Ha/Bohr)        Fy(Ha/Bohr)        Fz(Ha/Bohr)
    8    1    -0.086184109515     0.060979495705     0.026384144623
    8    2     0.027092602734    -0.019169347830    -0.008294047209
#  iter FOD      Fx(Ha/Bohr)        Fy(Ha/Bohr)        Fz(Ha/Bohr)
    9    1    -0.086223763979     0.061007553010     0.026396279869
    9    2     0.027111510647    -0.019182721319    -0.008299834157
#  iter FOD      Fx(Ha/Bohr)        Fy(Ha/Bohr)        Fz(Ha/Bohr)
   10    1    -0.056934914185     0.040284251305     0.017429885090
   10    2    -0.027045073069     0.019135721404     0.008279499581
#  iter FOD      Fx(Ha/Bohr)        Fy(Ha/Bohr)        Fz(Ha/Bohr)
   11    1    -0.056935184202     0.040284442151     0.017429963213
   11    2    -0.027045376151     0.019135933315     0.008279591677
#  iter FOD      Fx(Ha/Bohr)        Fy(Ha/Bohr)        Fz(Ha/Bohr)
   12    1    -0.074782930278     0.052912594024     0.022893825766
   12    2     0.015437108716    -0.010922509994    -0.004725869998
#  iter FOD      Fx(Ha/Bohr)        Fy(Ha/Bohr)        Fz(Ha/Bohr)
   13    1    -0.053952590149     0.038174112653     0.016516881128
   13    2    -0.030472101780     0.021560512200     0.009328637956
#  iter FOD      Fx(Ha/Bohr)        Fy(Ha/Bohr)        Fz(Ha/Bohr)
   14    1    -0.056935278330     0.040284506923     0.017430002846
   14    2    -0.027045480993     0.019136011009     0.008279631443
#  iter FOD      Fx(Ha/Bohr)        Fy(Ha/Bohr)        Fz(Ha/Bohr)
   15    1    -0.086234373828     0.061015059291     0.026399527805
   15    2     0.027116569151    -0.019186307456    -0.008301382493
#  iter FOD      Fx(Ha/Bohr)        Fy(Ha/Bohr)        Fz(Ha/Bohr)
   16    1    -0.086234374607     0.061015058512     0.026399530220
   16    2     0.027116574788    -0.019186308387    -0.008301383505
#  iter FOD      Fx(Ha/Bohr)        Fy(Ha/Bohr)        Fz(Ha/Bohr)
   17    1    -0.086234367852     0.061015054817     0.026399530220
   17    2     0.027116565449    -0.019186303749    -0.008301383505
#  iter FOD      Fx(Ha/Bohr)        Fy(Ha/Bohr)        Fz(Ha/Bohr)
   18    1    -0.086234367824     0.061015054817     0.026399530220
   18    2     0.027116565415    -0.019186303749    -0.008301383505
#  iter FOD      Fx(Ha/Bohr)        Fy(Ha/Bohr)        Fz(Ha/Bohr)
   19    1    -0.086234367824     0.061015054817     0.026399530220
   19    2     0.027116565415    -0.019186303749    -0.008301383505
#  iter FOD      Fx(Ha/Bohr)        Fy(Ha/Bohr)        Fz(Ha/Bohr)
   20    1    -0.086234367824     0.061015054817     0.026399530220
   20    2     0.027116565415    -0.019186303749    -0.008301383505
#  iter FOD      Fx(Ha/Bohr)        Fy(Ha/Bohr)        Fz(Ha/Bohr)
   21    1    -0.086234367824     0.061015054817     0.026399530220
   21    2     0.027116565415    -0.019186303749    -0.008301383505
