 spin=   1 iter=   1 nfo=    1 dir=    1      0.14703578     -0.09756389     -0.04947189      0.00139174      0.00111810     -0.00027364
 spin=   1 iter=   1 nfo=    2 dir=    1      0.37290142      0.00648279      0.00567043     -0.03531980      0.10759089      0.00237337
 spin=   1 iter=   1 nfo=    3 dir=    1     -0.00569175     -0.24743449     -0.00237237     -0.26799433     -0.00969774     -0.31594892
 spin=   1 iter=   1 nfo=    4 dir=    1     -0.00411041      0.00002132     -0.12546682     -0.01207110     -0.35126864      0.37558499
 spin=   1 iter=   1 nfo=    1 dir=    2      0.04097510     -0.23673602      0.19576093      0.00158014     -0.00088071     -0.00246084
 spin=   1 iter=   1 nfo=    2 dir=    2      0.10391813      0.00534623     -0.00195944     -0.63253517      0.65267529      0.02134393
 spin=   1 iter=   1 nfo=    3 dir=    2     -0.00847638     -0.60039268     -0.01109099      0.28816143      0.00763875      0.17180100
 spin=   1 iter=   1 nfo=    4 dir=    2      0.00574477      0.01043581      0.49647443     -0.01370517     -0.46073425      0.36451384
 spin=   1 iter=   1 nfo=    1 dir=    3      0.21079574     -0.04659004     -0.16420569      0.00146449      0.00213370      0.00066922
 spin=   1 iter=   1 nfo=    2 dir=    3      0.53460468      0.00771827      0.00970502      0.22655876     -0.12294844     -0.00580439
 spin=   1 iter=   1 nfo=    3 dir=    3     -0.00509267     -0.11815821      0.00124179     -0.54572816     -0.01850649     -0.56862807
 spin=   1 iter=   1 nfo=    4 dir=    3     -0.00896005     -0.00461233     -0.41644627     -0.01270210     -0.34206920      0.42277957
 spin=   2 iter=   1 nfo=    1 dir=    1     -0.00000000
 spin=   2 iter=   1 nfo=    2 dir=    1     -0.00043494
 spin=   2 iter=   1 nfo=    1 dir=    2      0.00000000
 spin=   2 iter=   1 nfo=    2 dir=    2      0.00012430
 spin=   2 iter=   1 nfo=    1 dir=    3      0.00000000
 spin=   2 iter=   1 nfo=    2 dir=    3      0.01936265
 spin=   1 iter=   1 nfo=    1 dir=    1      0.14703578     -0.09756389     -0.04947189      0.00139174      0.00111810     -0.00027364
 spin=   1 iter=   1 nfo=    2 dir=    1      0.37290142      0.00648279      0.00567043     -0.03531980      0.10759089      0.00237337
 spin=   1 iter=   1 nfo=    3 dir=    1     -0.00569175     -0.24743449     -0.00237237     -0.26799433     -0.00969774     -0.31594892
 spin=   1 iter=   1 nfo=    4 dir=    1     -0.00411041      0.00002132     -0.12546682     -0.01207110     -0.35126864      0.37558499
 spin=   1 iter=   1 nfo=    1 dir=    2      0.04097510     -0.23673602      0.19576093      0.00158014     -0.00088071     -0.00246084
 spin=   1 iter=   1 nfo=    2 dir=    2      0.10391813      0.00534623     -0.00195944     -0.63253517      0.65267529      0.02134393
 spin=   1 iter=   1 nfo=    3 dir=    2     -0.00847638     -0.60039268     -0.01109099      0.28816143      0.00763875      0.17180100
 spin=   1 iter=   1 nfo=    4 dir=    2      0.00574477      0.01043581      0.49647443     -0.01370517     -0.46073425      0.36451384
 spin=   1 iter=   1 nfo=    1 dir=    3      0.21079574     -0.04659004     -0.16420569      0.00146449      0.00213370      0.00066922
 spin=   1 iter=   1 nfo=    2 dir=    3      0.53460468      0.00771827      0.00970502      0.22655876     -0.12294844     -0.00580439
 spin=   1 iter=   1 nfo=    3 dir=    3     -0.00509267     -0.11815821      0.00124179     -0.54572816     -0.01850649     -0.56862807
 spin=   1 iter=   1 nfo=    4 dir=    3     -0.00896005     -0.00461233     -0.41644627     -0.01270210     -0.34206920      0.42277957
 spin=   2 iter=   1 nfo=    1 dir=    1     -0.00000000
 spin=   2 iter=   1 nfo=    2 dir=    1     -0.00043494
 spin=   2 iter=   1 nfo=    1 dir=    2      0.00000000
 spin=   2 iter=   1 nfo=    2 dir=    2      0.00012430
 spin=   2 iter=   1 nfo=    1 dir=    3      0.00000000
 spin=   2 iter=   1 nfo=    2 dir=    3      0.01936265
 spin=   1 iter=   1 nfo=    1 dir=    1      0.14703578     -0.09756389     -0.04947189      0.00139174      0.00111810     -0.00027364
 spin=   1 iter=   1 nfo=    2 dir=    1      0.37290142      0.00648279      0.00567043     -0.03531980      0.10759089      0.00237337
 spin=   1 iter=   1 nfo=    3 dir=    1     -0.00569175     -0.24743449     -0.00237237     -0.26799433     -0.00969774     -0.31594892
 spin=   1 iter=   1 nfo=    4 dir=    1     -0.00411041      0.00002132     -0.12546682     -0.01207110     -0.35126864      0.37558499
 spin=   1 iter=   1 nfo=    1 dir=    2      0.04097510     -0.23673602      0.19576093      0.00158014     -0.00088071     -0.00246084
 spin=   1 iter=   1 nfo=    2 dir=    2      0.10391813      0.00534623     -0.00195944     -0.63253517      0.65267529      0.02134393
 spin=   1 iter=   1 nfo=    3 dir=    2     -0.00847638     -0.60039268     -0.01109099      0.28816143      0.00763875      0.17180100
 spin=   1 iter=   1 nfo=    4 dir=    2      0.00574477      0.01043581      0.49647443     -0.01370517     -0.46073425      0.36451384
 spin=   1 iter=   1 nfo=    1 dir=    3      0.21079574     -0.04659004     -0.16420569      0.00146449      0.00213370      0.00066922
 spin=   1 iter=   1 nfo=    2 dir=    3      0.53460468      0.00771827      0.00970502      0.22655876     -0.12294844     -0.00580439
 spin=   1 iter=   1 nfo=    3 dir=    3     -0.00509267     -0.11815821      0.00124179     -0.54572816     -0.01850649     -0.56862807
 spin=   1 iter=   1 nfo=    4 dir=    3     -0.00896005     -0.00461233     -0.41644627     -0.01270210     -0.34206920      0.42277957
 spin=   2 iter=   1 nfo=    1 dir=    1     -0.00000000
 spin=   2 iter=   1 nfo=    2 dir=    1     -0.00043494
 spin=   2 iter=   1 nfo=    1 dir=    2      0.00000000
 spin=   2 iter=   1 nfo=    2 dir=    2      0.00012430
 spin=   2 iter=   1 nfo=    1 dir=    3      0.00000000
 spin=   2 iter=   1 nfo=    2 dir=    3      0.01936265
 spin=   1 iter=   1 nfo=    1 dir=    1      0.14703578     -0.09756389     -0.04947189      0.00139174      0.00111810     -0.00027364
 spin=   1 iter=   1 nfo=    2 dir=    1      0.37290142      0.00648279      0.00567043     -0.03531980      0.10759089      0.00237337
 spin=   1 iter=   1 nfo=    3 dir=    1     -0.00569175     -0.24743449     -0.00237237     -0.26799433     -0.00969774     -0.31594892
 spin=   1 iter=   1 nfo=    4 dir=    1     -0.00411041      0.00002132     -0.12546682     -0.01207110     -0.35126864      0.37558499
 spin=   1 iter=   1 nfo=    1 dir=    2      0.04097510     -0.23673602      0.19576093      0.00158014     -0.00088071     -0.00246084
 spin=   1 iter=   1 nfo=    2 dir=    2      0.10391813      0.00534623     -0.00195944     -0.63253517      0.65267529      0.02134393
 spin=   1 iter=   1 nfo=    3 dir=    2     -0.00847638     -0.60039268     -0.01109099      0.28816143      0.00763875      0.17180100
 spin=   1 iter=   1 nfo=    4 dir=    2      0.00574477      0.01043581      0.49647443     -0.01370517     -0.46073425      0.36451384
 spin=   1 iter=   1 nfo=    1 dir=    3      0.21079574     -0.04659004     -0.16420569      0.00146449      0.00213370      0.00066922
 spin=   1 iter=   1 nfo=    2 dir=    3      0.53460468      0.00771827      0.00970502      0.22655876     -0.12294844     -0.00580439
 spin=   1 iter=   1 nfo=    3 dir=    3     -0.00509267     -0.11815821      0.00124179     -0.54572816     -0.01850649     -0.56862807
 spin=   1 iter=   1 nfo=    4 dir=    3     -0.00896005     -0.00461233     -0.41644627     -0.01270210     -0.34206920      0.42277957
 spin=   2 iter=   1 nfo=    1 dir=    1     -0.00000000
 spin=   2 iter=   1 nfo=    2 dir=    1     -0.00043494
 spin=   2 iter=   1 nfo=    1 dir=    2      0.00000000
 spin=   2 iter=   1 nfo=    2 dir=    2      0.00012430
 spin=   2 iter=   1 nfo=    1 dir=    3      0.00000000
 spin=   2 iter=   1 nfo=    2 dir=    3      0.01936265
 spin=   1 iter=   1 nfo=    1 dir=    1      0.82052329     -0.79142730     -0.00495833      0.00257134      0.00257602     -0.00495179      0.29914606     -0.03749787     -0.00935611     -0.00935344     -0.03750866      0.03746545      0.00819500      0.00819106      0.03747386      0.00015722      0.00015739      0.00000032      0.00000006     -0.00015718     -0.00015736
 spin=   1 iter=   1 nfo=    2 dir=    1     -0.04733291      0.13629735     -0.02024020      0.00932126      0.00933630     -0.02021843     -0.68596134      0.13006075     -0.06043276     -0.06053212      0.12991859      0.01375425      0.01708969      0.01710209      0.01378225     -0.00378510     -0.00378875     -0.00000686     -0.00000115      0.00378419      0.00378784
 spin=   1 iter=   1 nfo=    3 dir=    1     -0.15566899      0.11638239      0.02266419     -0.00805134     -0.00806583      0.02264429     -0.72616785     -0.01609882     -0.01723286     -0.01724466     -0.01612642     -0.12530411      0.05794695      0.05804210     -0.12516826      0.00363566      0.00363916      0.00000656      0.00000110     -0.00363480     -0.00363830
 spin=   1 iter=   1 nfo=    4 dir=    1      0.03780378     -0.03288750      0.03047544     -0.00024184     -0.00041230     -0.00078436     -0.06649965     -0.65984906      0.00516742      0.00875812      0.01660766      0.62931044     -0.00492188     -0.00834173     -0.01583092      0.00001652      0.00001631     -0.00005289      0.00000012      0.00000096      0.00000129
 spin=   1 iter=   1 nfo=    5 dir=    1      0.00284151     -0.00244353     -0.00007690      0.00937596      0.00000215     -0.00013069     -0.00572024      0.00164933     -0.20557324     -0.00003973      0.00279582     -0.00157300      0.19618137      0.00003782     -0.00266558      0.00001532     -0.00000004     -0.00000010      0.00000509     -0.00001527      0.00000008
 spin=   1 iter=   1 nfo=    6 dir=    1      0.00284146     -0.00244341     -0.00013074      0.00000215      0.00937943     -0.00007694     -0.00572140      0.00279678     -0.00003974     -0.20564427      0.00165027     -0.00266649      0.00003783      0.19624894     -0.00157389     -0.00000008      0.00001526      0.00000010     -0.00000507      0.00000004     -0.00001533
 spin=   1 iter=   1 nfo=    7 dir=    1      0.03780053     -0.03288479     -0.00078407     -0.00041216     -0.00024181      0.03046456     -0.06649416      0.01660200      0.00875516      0.00516679     -0.65963186     -0.01582554     -0.00833893     -0.00492128      0.62910401     -0.00000129     -0.00000096      0.00005284     -0.00000012     -0.00001614     -0.00001657
 spin=   1 iter=   1 nfo=    1 dir=    2      0.33728432      0.40078330     -0.13588138      0.06782697      0.06795079     -0.13571193     -0.01191350      0.00288039     -0.01484415     -0.01486148      0.00284999     -0.00010907     -0.01550009     -0.01551711     -0.00014015      0.00421079      0.00421542      0.00000836      0.00000147     -0.00420983     -0.00421447
 spin=   1 iter=   1 nfo=    2 dir=    2      0.87352457     -0.25394856      0.03215158      0.01501255      0.01501744      0.03217288      0.54052881      0.05374305     -0.02789202     -0.02793637      0.05367218     -0.03066428     -0.00243730     -0.00243051     -0.03066038     -0.00165623     -0.00165783     -0.00000331     -0.00000050      0.00165575      0.00165735
 spin=   1 iter=   1 nfo=    3 dir=    2     -0.24214906      0.86662551      0.03033088      0.01571987      0.01572596      0.03035384     -0.48449198     -0.02951676     -0.00108525     -0.00107753     -0.02951069      0.06426685     -0.03264739     -0.03269943      0.06418496     -0.00195656     -0.00195844     -0.00000384     -0.00000059      0.00195601      0.00195789
 spin=   1 iter=   1 nfo=    4 dir=    2      0.05996369      0.06264536      0.76295904     -0.00597833     -0.01020639     -0.01969103      0.00262723     -0.35823995      0.00291833      0.00492202      0.00894261     -0.40873830      0.00331143      0.00558763      0.01020734      0.00114853      0.00132910     -0.00380799      0.00000653      0.00006632      0.00009367
 spin=   1 iter=   1 nfo=    5 dir=    2      0.00487285      0.00508717     -0.00193287      0.23554686      0.00005586     -0.00327411      0.00021991      0.00088261     -0.11041398     -0.00001794      0.00151361      0.00100858     -0.12620751     -0.00002085      0.00172692      0.00114538     -0.00000304     -0.00000732      0.00036267     -0.00114258      0.00000554
 spin=   1 iter=   1 nfo=    6 dir=    2      0.00487356      0.00508790     -0.00327528      0.00005587      0.23563212     -0.00193399      0.00021995      0.00151417     -0.00001796     -0.11045412      0.00088312      0.00172755     -0.00002088     -0.12625298      0.00100917     -0.00000553      0.00114248      0.00000733     -0.00036186      0.00000303     -0.00114631
 spin=   1 iter=   1 nfo=    7 dir=    2      0.05995751      0.06263903     -0.01968391     -0.01020284     -0.00597731      0.76269419      0.00262700      0.00893940      0.00492016      0.00291809     -0.35811435      0.01020371      0.00558555      0.00331116     -0.40859652     -0.00009356     -0.00006638      0.00380479     -0.00000659     -0.00132716     -0.00115119
 spin=   1 iter=   1 nfo=    1 dir=    3      0.00015901      0.00015932     -0.20282694      0.05540068     -0.05559783      0.20281747     -0.00000011      0.03126586     -0.00814845      0.00817374     -0.03128166      0.03117612     -0.00812562      0.00815083     -0.03119193      0.00424584     -0.00020965      0.01681456     -0.00107774     -0.00020163      0.00425355
 spin=   1 iter=   1 nfo=    2 dir=    3     -0.00014438     -0.00000322      0.03285759     -0.00697558      0.00699699     -0.03287047      0.00015278     -0.21114475      0.04717749     -0.04734606      0.21112835      0.02979322     -0.00634190      0.00636094     -0.02980640      0.00407589      0.00045463      0.01673698     -0.00098376      0.00046090      0.00408238
 spin=   1 iter=   1 nfo=    3 dir=    3     -0.00000311     -0.00014428      0.03281259     -0.00692011      0.00694136     -0.03282540     -0.00015239      0.02983806     -0.00630916      0.00632811     -0.02985116     -0.21139777      0.04692621     -0.04709408      0.21138113      0.00407140      0.00047441      0.01673504     -0.00098047      0.00048063      0.00407786
 spin=   1 iter=   1 nfo=    4 dir=    3     -0.00019030     -0.00019624      0.07570490     -0.00033088      0.04336558     -0.00059806     -0.00000593      0.07739437     -0.00034296      0.04106654     -0.00065425      0.07745067     -0.00034337      0.04099958     -0.00065609      0.00307906      0.97154844      0.02547179     -0.00637202     -0.00007024      0.02037462
 spin=   1 iter=   1 nfo=    5 dir=    3      0.00003256      0.00003350     -0.00015939      0.08105225     -0.00003285      0.00138562      0.00000094     -0.00015027      0.08059623     -0.00003557      0.00151319     -0.00015002      0.08058429     -0.00003565      0.00151691     -0.03267843      0.00002011     -0.00099252      0.00148786      0.18794187     -0.00002920
 spin=   1 iter=   1 nfo=    6 dir=    3     -0.00003267     -0.00003361     -0.00138530      0.00003289     -0.08105703      0.00015969     -0.00000094     -0.00151327      0.00003563     -0.08060115      0.00015055     -0.00151700      0.00003570     -0.08058924      0.00015029     -0.00002925      0.18797714     -0.00099314      0.00148352      0.00002015     -0.03267027
 spin=   1 iter=   1 nfo=    7 dir=    3      0.00019043      0.00019638      0.00059707     -0.04337817      0.00033075     -0.07570426      0.00000594      0.00065335     -0.04107850      0.00034285     -0.07739430      0.00065519     -0.04101156      0.00034326     -0.07745081      0.02037515     -0.00007029      0.02548595     -0.00637350      0.97159103      0.00308233
 spin=   2 iter=   1 nfo=    1 dir=    1      0.01206973     -0.00260987     -0.00996564      0.00128025      0.00425790     -0.00289906      0.00046436      0.00387975     -0.00066263      0.00004298
 spin=   2 iter=   1 nfo=    2 dir=    1     -0.01038364      0.00024526     -0.00054329     -0.00046101     -0.01560746     -0.02173748     -0.00176886      0.00093738      0.00061067      0.00051872
 spin=   2 iter=   1 nfo=    3 dir=    1     -0.01425836     -0.08571971      0.04578340     -0.00729590     -0.06142157      0.02505071     -0.00409802     -0.08431925      0.00964800      0.00047673
 spin=   2 iter=   1 nfo=    4 dir=    1      0.00575756     -0.00150565      0.00858903      0.00617729      0.01028349     -0.03815588     -0.00049130     -0.00544174     -0.01085139      0.03917162
 spin=   2 iter=   1 nfo=    5 dir=    1     -0.00041426     -0.00006788      0.00038131     -0.00192381     -0.00072433      0.00031236     -0.00989925     -0.00060674      0.00315953      0.00763118
 spin=   2 iter=   1 nfo=    1 dir=    2      0.22450649     -0.04854610     -0.18536828      0.02381359      0.07920025     -0.05392483      0.00863741      0.07216628     -0.01232541      0.00079936
 spin=   2 iter=   1 nfo=    2 dir=    2     -0.19314592      0.00456206     -0.01010527     -0.00857528     -0.29031336     -0.40433232     -0.03290274      0.01743542      0.01135907      0.00964864
 spin=   2 iter=   1 nfo=    3 dir=    2     -0.26521491     -1.59446582      0.85161016     -0.13570982     -1.14248636      0.46596239     -0.07622630     -1.56840582      0.17945974      0.00886779
 spin=   2 iter=   1 nfo=    4 dir=    2      0.10709581     -0.02800586      0.15975926      0.11490216      0.19128192     -0.70973094     -0.00913844     -0.10121694     -0.20184392      0.72862048
 spin=   2 iter=   1 nfo=    5 dir=    2     -0.00770556     -0.00126270      0.00709262     -0.03578493     -0.01347310      0.00581015     -0.18413383     -0.01128587      0.05877025      0.14194576
 spin=   2 iter=   1 nfo=    1 dir=    3      0.09862338     -0.05405413      0.15162807     -0.04449170      0.02119371     -0.00231220     -0.00110325     -0.03649393      0.01269765     -0.00347817
 spin=   2 iter=   1 nfo=    2 dir=    3     -0.37666518      0.00406556      0.06866758     -0.01569541     -0.48645332      0.21823235      0.04133680     -0.08914003      0.01914488     -0.01080608
 spin=   2 iter=   1 nfo=    3 dir=    3     -0.57184864      2.91826364     -1.15187897      0.20536916     -1.46912551      0.13417705     -0.02069536      1.92311912     -0.33679485      0.00681089
 spin=   2 iter=   1 nfo=    4 dir=    3     -0.04799229      0.03966921     -0.26043049      0.13324906     -0.09607967      0.48312990     -0.05245257      0.26945868     -0.22085193      0.80485595
 spin=   2 iter=   1 nfo=    5 dir=    3     -0.00523343     -0.00443637      0.00657710     -0.14123693     -0.00586653      0.00229964      0.04747201     -0.00576158      0.16931170     -0.03164775
 spin=   2 iter=   2 nfo=    1 dir=    1      0.01167308     -0.00701351     -0.00592264      0.00012168     -0.00044963     -0.00028054     -0.00000450     -0.00000483      0.00001138      0.00000327
 spin=   2 iter=   2 nfo=    2 dir=    1     -0.00027259     -0.00064637     -0.00007224     -0.00009936     -0.02320047     -0.01090261     -0.00400881     -0.00029259      0.00103721      0.00016550
 spin=   2 iter=   2 nfo=    3 dir=    1      0.00074383      0.00056184     -0.00016196      0.00011942     -0.04821575      0.02092048     -0.00167918     -0.01851922      0.00766355     -0.00291376
 spin=   2 iter=   2 nfo=    4 dir=    1      0.00033716     -0.00017983      0.00170253      0.00021083      0.01552091     -0.03902425     -0.00010377     -0.00193150     -0.00831200      0.02019703
 spin=   2 iter=   2 nfo=    5 dir=    1      0.00001170      0.00000032     -0.00000479      0.00016506     -0.00046579     -0.00007587     -0.01111190     -0.00025316      0.00519184      0.00766815
 spin=   2 iter=   2 nfo=    1 dir=    2      0.21712848     -0.13045802     -0.11016451      0.00226315     -0.00836361     -0.00521820     -0.00008377     -0.00008981      0.00021160      0.00006076
 spin=   2 iter=   2 nfo=    2 dir=    2     -0.00507067     -0.01202311     -0.00134366     -0.00184826     -0.43154956     -0.20279427     -0.07456751     -0.00544303      0.01929305      0.00307825
 spin=   2 iter=   2 nfo=    3 dir=    2      0.01383575      0.01045029     -0.00301240      0.00222138     -0.89684996      0.38913686     -0.03123407     -0.34447044      0.14254862     -0.05419850
 spin=   2 iter=   2 nfo=    4 dir=    2      0.00627139     -0.00334488      0.03166797      0.00392164      0.28870177     -0.72588309     -0.00193017     -0.03592446     -0.15460908      0.37567895
 spin=   2 iter=   2 nfo=    5 dir=    2      0.00021760      0.00000588     -0.00008907      0.00307006     -0.00866417     -0.00141113     -0.20669025     -0.00470898      0.09657334      0.14263273
 spin=   2 iter=   2 nfo=    1 dir=    3      0.11166938     -0.18313017      0.28561361     -0.04121287     -0.01187258      0.00938727     -0.00119487      0.01280034     -0.00027710     -0.00124002
 spin=   2 iter=   2 nfo=    2 dir=    3     -0.01989101     -0.01977281      0.01838024      0.00099659     -0.55444165      0.40097457      0.07262857     -0.09048739      0.01506474     -0.01912083
 spin=   2 iter=   2 nfo=    3 dir=    3     -0.00174913     -0.02056033      0.01513749      0.00231151      0.21640381     -0.12326219     -0.00830176      0.37903040      0.18434623     -0.07787030
 spin=   2 iter=   2 nfo=    4 dir=    3     -0.00285448      0.00691873     -0.04145656      0.00364562     -0.13419249      0.38710642     -0.00828898      0.23286739     -0.13490156      0.36212212
 spin=   2 iter=   2 nfo=    5 dir=    3     -0.00055488     -0.00140073      0.00078321     -0.02923229     -0.01028495      0.00970688      0.05450483      0.00725252      0.28978806     -0.21166424
 spin=   2 iter=   3 nfo=    1 dir=    1      0.01360396     -0.00779970     -0.00719843      0.00010673     -0.00052080     -0.00035923      0.00000397     -0.00001432      0.00000655      0.00000036
 spin=   2 iter=   3 nfo=    2 dir=    1     -0.00022584     -0.00066934     -0.00007473     -0.00009636     -0.02291067     -0.01100354     -0.00388603     -0.00008657      0.00106806      0.00013601
 spin=   2 iter=   3 nfo=    3 dir=    1      0.00074854      0.00077054     -0.00025152      0.00013776     -0.04901453      0.02157320     -0.00144663     -0.01962748      0.00836013     -0.00331808
 spin=   2 iter=   3 nfo=    4 dir=    1      0.00036469     -0.00006325      0.00137315      0.00017500      0.01531560     -0.03818880     -0.00027065     -0.00153867     -0.00640851      0.01515473
 spin=   2 iter=   3 nfo=    5 dir=    1      0.00000473      0.00000410      0.00000062      0.00019963     -0.00041343     -0.00028478     -0.01314404     -0.00016761      0.00590534      0.00923956
 spin=   2 iter=   3 nfo=    1 dir=    2      0.25304428     -0.14508236     -0.13389468      0.00198517     -0.00968736     -0.00668186      0.00007393     -0.00026621      0.00012192      0.00000661
 spin=   2 iter=   3 nfo=    2 dir=    2     -0.00420111     -0.01245025     -0.00138996     -0.00179231     -0.42615892     -0.20467166     -0.07228349     -0.00161086      0.01986692      0.00252980
 spin=   2 iter=   3 nfo=    3 dir=    2      0.01392336      0.01433222     -0.00467827      0.00256238     -0.91170796      0.40127798     -0.02690852     -0.36508493      0.15550581     -0.06171921
 spin=   2 iter=   3 nfo=    4 dir=    2      0.00678354     -0.00117646      0.02554131      0.00325513      0.28488286     -0.71034289     -0.00503422     -0.02861756     -0.11920279      0.28188855
 spin=   2 iter=   3 nfo=    5 dir=    2      0.00008799      0.00007632      0.00001163      0.00371319     -0.00769013     -0.00529714     -0.24448972     -0.00311753      0.10984533      0.17186158
 spin=   2 iter=   3 nfo=    1 dir=    3      0.13417012     -0.28659088      0.39923688     -0.04540227     -0.01779288      0.01417546     -0.00119180      0.01948110     -0.00035380     -0.00122933
 spin=   2 iter=   3 nfo=    2 dir=    3     -0.01787020     -0.02087891      0.01917643      0.00146365     -0.55658920      0.40578454      0.08119780     -0.08989063      0.01433884     -0.02004044
 spin=   2 iter=   3 nfo=    3 dir=    3     -0.00199144     -0.02078731      0.01522605      0.00320498      0.23783898     -0.13335155     -0.01391440      0.38149189      0.22971532     -0.09392730
 spin=   2 iter=   3 nfo=    4 dir=    3     -0.00253424      0.00503940     -0.03708704      0.00277388     -0.10702832      0.31448125     -0.00245241      0.25690061     -0.10068871      0.27444941
 spin=   2 iter=   3 nfo=    5 dir=    3     -0.00078217     -0.00135790      0.00042484     -0.04008554     -0.01711661      0.01593651      0.04341988      0.01364338      0.41329212     -0.33276175
 spin=   2 iter=   4 nfo=    1 dir=    1      0.05013217     -0.01480715     -0.04093132     -0.00169863     -0.00111499     -0.00194178     -0.00409971     -0.00066083      0.00049027      0.00348530
 spin=   2 iter=   4 nfo=    2 dir=    1      0.00214593     -0.00086266     -0.00008917      0.00011649     -0.01712990     -0.01521048      0.00034413      0.00228943      0.00046468      0.00036924
 spin=   2 iter=   4 nfo=    3 dir=    1      0.00278681     -0.01638545      0.00659192      0.00132579     -0.05188097      0.02587340      0.00124495     -0.04132127      0.01574401     -0.00943626
 spin=   2 iter=   4 nfo=    4 dir=    1      0.00020044      0.00115025     -0.00197605     -0.00015888      0.01254812     -0.03154099     -0.00159177      0.00026285     -0.00026168      0.00004782
 spin=   2 iter=   4 nfo=    5 dir=    1      0.00327775      0.00114856     -0.00517668     -0.00498315      0.00422930     -0.00545562     -0.04465372      0.00409327      0.00813120      0.05045547
 spin=   2 iter=   4 nfo=    1 dir=    2      0.93249891     -0.27544668     -0.76133883     -0.03158450     -0.02074079     -0.03611778     -0.07625792     -0.01229106      0.00912294      0.06482682
 spin=   2 iter=   4 nfo=    2 dir=    2      0.03991683     -0.01604637     -0.00165843      0.00216677     -0.31863139     -0.28292506      0.00640223      0.04258494      0.00864328      0.00686813
 spin=   2 iter=   4 nfo=    3 dir=    2      0.05183697     -0.30478373      0.12261565      0.02466082     -0.96502432      0.48126496      0.02315650     -0.76860967      0.29285500     -0.17552351
 spin=   2 iter=   4 nfo=    4 dir=    2      0.00372831      0.02139510     -0.03675485     -0.00295520      0.23340520     -0.58668789     -0.02960821      0.00489057     -0.00486780      0.00089065
 spin=   2 iter=   4 nfo=    5 dir=    2      0.06096974      0.02136127     -0.09628756     -0.09268358      0.07866805     -0.10147837     -0.83060115      0.07613779      0.15126096      0.93849524
 spin=   2 iter=   4 nfo=    1 dir=    3      0.68130471     -4.15864813      3.36467707      2.18997777     -0.22599323      0.15957436     -0.05609513      0.19556264      0.67168631     -0.50874273
 spin=   2 iter=   4 nfo=    2 dir=    3      0.17384739     -0.03736357      0.01756555      0.01299838     -0.31481993      0.16803882      0.27836416     -0.02831904     -0.02586721      0.00056476
 spin=   2 iter=   4 nfo=    3 dir=    3      0.01536741     -0.15246932      0.08094178      0.02572422      0.62203651     -0.21498606     -0.14151155     -0.13324560      0.93030185     -0.36287276
 spin=   2 iter=   4 nfo=    4 dir=    3      0.01077230     -0.10082460      0.26556949      0.01603804      0.04273013     -0.10549180      0.00417244      0.26543627     -0.10228330      0.30704918
 spin=   2 iter=   4 nfo=    5 dir=    3      0.22205095     -0.71345608      0.67233584      1.66173478     -0.11348156      0.12333078     -1.28994407     -0.04905154      3.63378651     -3.78771620
 spin=   2 iter=   5 nfo=    1 dir=    1      0.01449300     -0.00816801     -0.00778922      0.00011404     -0.00055494     -0.00039832      0.00000997     -0.00001876      0.00000390     -0.00000158
 spin=   2 iter=   5 nfo=    2 dir=    1     -0.00020032     -0.00068136     -0.00007580     -0.00009464     -0.02282153     -0.01102657     -0.00381080     -0.00002865      0.00107670      0.00012775
 spin=   2 iter=   5 nfo=    3 dir=    1      0.00075332      0.00083241     -0.00027950      0.00014455     -0.04929287      0.02179491     -0.00139838     -0.01999801      0.00865526     -0.00347497
 spin=   2 iter=   5 nfo=    4 dir=    1      0.00037838     -0.00002136      0.00126629      0.00016797      0.01530233     -0.03804738     -0.00031422     -0.00142335     -0.00598843      0.01403501
 spin=   2 iter=   5 nfo=    5 dir=    1     -0.00000017      0.00000624      0.00000429      0.00021241     -0.00040308     -0.00035624     -0.01396907     -0.00014406      0.00621858      0.00988841
 spin=   2 iter=   5 nfo=    1 dir=    2      0.26958127     -0.15193367     -0.14488357      0.00212116     -0.01032243     -0.00740905      0.00018541     -0.00034886      0.00007248     -0.00002943
 spin=   2 iter=   5 nfo=    2 dir=    2     -0.00372635     -0.01267398     -0.00140983     -0.00176048     -0.42450092     -0.20510012     -0.07088416     -0.00053339      0.02002763      0.00237623
 spin=   2 iter=   5 nfo=    3 dir=    2      0.01401234      0.01548308     -0.00519881      0.00268879     -0.91688519      0.40540192     -0.02601101     -0.37197720      0.16099567     -0.06463750
 spin=   2 iter=   5 nfo=    4 dir=    2      0.00703820     -0.00039724      0.02355367      0.00312435      0.28463593     -0.70771240     -0.00584470     -0.02647259     -0.11138906      0.26106094
 spin=   2 iter=   5 nfo=    5 dir=    2     -0.00000311      0.00011603      0.00007971      0.00395075     -0.00749772     -0.00662630     -0.25983609     -0.00267959      0.11567215      0.18393051
 spin=   2 iter=   5 nfo=    1 dir=    3      0.14298285     -0.33884737      0.45427578     -0.04725482     -0.02080507      0.01664021     -0.00117514      0.02296384     -0.00051238     -0.00110629
 spin=   2 iter=   5 nfo=    2 dir=    3     -0.01653776     -0.02142682      0.01954050      0.00162232     -0.55720587      0.40779287      0.08360661     -0.08978434      0.01432905     -0.02044690
 spin=   2 iter=   5 nfo=    3 dir=    3     -0.00216074     -0.02019796      0.01499838      0.00352595      0.24584462     -0.13697324     -0.01575703      0.38216230      0.24563714     -0.09971889
 spin=   2 iter=   5 nfo=    4 dir=    3     -0.00248631      0.00393564     -0.03466959      0.00264639     -0.10002833      0.29575057     -0.00136543      0.26316313     -0.09370971      0.25685903
 spin=   2 iter=   5 nfo=    5 dir=    3     -0.00088290     -0.00118323      0.00014615     -0.04398873     -0.02015765      0.01864089      0.03639524      0.01621986      0.46540515     -0.38567852
 spin=   2 iter=   6 nfo=    1 dir=    1      0.02257422     -0.01111035     -0.01358606      0.00018163     -0.00087431     -0.00082364      0.00010864     -0.00008432     -0.00003410     -0.00004465
 spin=   2 iter=   6 nfo=    2 dir=    1      0.00017354     -0.00080151     -0.00007864     -0.00006123     -0.02197474     -0.01134087     -0.00290224      0.00055396      0.00110951      0.00006991
 spin=   2 iter=   6 nfo=    3 dir=    1      0.00083421      0.00099474     -0.00042684      0.00020860     -0.05170324      0.02384876     -0.00100812     -0.02396297      0.01174281     -0.00513298
 spin=   2 iter=   6 nfo=    4 dir=    1      0.00047120      0.00042556      0.00016516      0.00008411      0.01515046     -0.03683239     -0.00068439     -0.00053043     -0.00317279      0.00671682
 spin=   2 iter=   6 nfo=    5 dir=    1     -0.00008341      0.00002972      0.00007401      0.00028357     -0.00007216     -0.00121749     -0.02109931      0.00018814      0.00813878      0.01697308
 spin=   2 iter=   6 nfo=    1 dir=    2      0.41989835     -0.20666737     -0.25270590      0.00337860     -0.01626319     -0.01532002      0.00202088     -0.00156802     -0.00063435     -0.00083048
 spin=   2 iter=   6 nfo=    2 dir=    2      0.00322782     -0.01490877     -0.00146259     -0.00113887     -0.40875001     -0.21094621     -0.05398392      0.01030359      0.02063784      0.00130022
 spin=   2 iter=   6 nfo=    3 dir=    2      0.01551702      0.01850268     -0.00793953      0.00388018     -0.96171982      0.44360514     -0.01875194     -0.44572882      0.21842724     -0.09547822
 spin=   2 iter=   6 nfo=    4 dir=    2      0.00876471      0.00791574      0.00307203      0.00156443      0.28181108     -0.68511255     -0.01273019     -0.00986380     -0.05901612      0.12493762
 spin=   2 iter=   6 nfo=    5 dir=    2     -0.00155158      0.00055279      0.00137662      0.00527449     -0.00134242     -0.02264616     -0.39246501      0.00349972      0.15139183      0.31570803
 spin=   2 iter=   6 nfo=    1 dir=    3      0.23698998     -1.06051408      1.13492514     -0.00131908     -0.06490158      0.05096158      0.00218353      0.07524904     -0.00551697      0.00670349
 spin=   2 iter=   6 nfo=    2 dir=    3      0.00809661     -0.02768724      0.02269831      0.00384470     -0.55783768      0.41849558      0.11543635     -0.08650776      0.01252493     -0.02313006
 spin=   2 iter=   6 nfo=    3 dir=    3     -0.00525833     -0.00091923      0.00650239      0.00692849      0.31856788     -0.16835263     -0.03756932      0.37247412      0.41647404     -0.16277196
 spin=   2 iter=   6 nfo=    4 dir=    3     -0.00108983     -0.01379166      0.00544771      0.00274544     -0.03984748      0.13613384      0.00272759      0.32157165     -0.05713256      0.16810652
 spin=   2 iter=   6 nfo=    5 dir=    3     -0.00216020      0.00619296     -0.00736529     -0.04942969     -0.05964674      0.05254833     -0.11925635      0.04428678      1.07894227     -1.06173050
 spin=   2 iter=   7 nfo=    1 dir=    1      0.01852663     -0.00974954     -0.01057239      0.00014571     -0.00071465     -0.00059910      0.00005202     -0.00004220     -0.00001389     -0.00001814
 spin=   2 iter=   7 nfo=    2 dir=    1     -0.00004455     -0.00074145     -0.00007932     -0.00008207     -0.02239829     -0.01116183     -0.00339532      0.00025919      0.00110725      0.00009253
 spin=   2 iter=   7 nfo=    3 dir=    1      0.00078327      0.00103263     -0.00038846      0.00017648     -0.05056866      0.02284610     -0.00119762     -0.02187907      0.01016853     -0.00427879
 spin=   2 iter=   7 nfo=    4 dir=    1      0.00043676      0.00019410      0.00072823      0.00012989      0.01524016     -0.03742197     -0.00050747     -0.00091307     -0.00435485      0.00973875
 spin=   2 iter=   7 nfo=    5 dir=    1     -0.00003555      0.00001899      0.00003200      0.00026673     -0.00029186     -0.00074766     -0.01759980     -0.00000232      0.00741958      0.01317440
 spin=   2 iter=   7 nfo=    1 dir=    2      0.34461003     -0.18135304     -0.19665123      0.00271020     -0.01329322     -0.01114355      0.00096770     -0.00078479     -0.00025830     -0.00033742
 spin=   2 iter=   7 nfo=    2 dir=    2     -0.00082880     -0.01379160     -0.00147528     -0.00152660     -0.41662841     -0.20761607     -0.06315581      0.00482057      0.02059587      0.00172104
 spin=   2 iter=   7 nfo=    3 dir=    2      0.01456946      0.01920748     -0.00722545      0.00328260     -0.94061580      0.42495493     -0.02227674     -0.40696650      0.18914401     -0.07958945
 spin=   2 iter=   7 nfo=    4 dir=    2      0.00812416      0.00361048      0.01354542      0.00241612      0.28347955     -0.69607929     -0.00943941     -0.01698116     -0.08100328      0.18114745
 spin=   2 iter=   7 nfo=    5 dir=    2     -0.00066124      0.00035319      0.00059514      0.00496126     -0.00542899     -0.01390694     -0.32737081     -0.00004312      0.13801282      0.24505112
 spin=   2 iter=   7 nfo=    1 dir=    3      0.18039621     -0.64414374      0.74816266     -0.04140049     -0.03880687      0.03104601     -0.00037766      0.04412588     -0.00220024      0.00109153
 spin=   2 iter=   7 nfo=    2 dir=    3     -0.00708916     -0.02435132      0.02122957      0.00255614     -0.55903369      0.41547534      0.09727349     -0.08867980      0.01396849     -0.02216833
 spin=   2 iter=   7 nfo=    3 dir=    3     -0.00334100     -0.01366723      0.01222686      0.00517303      0.28299414     -0.15351596     -0.02568574      0.38182610      0.32709587     -0.12965770
 spin=   2 iter=   7 nfo=    4 dir=    3     -0.00203231     -0.00321925     -0.01875625      0.00237668     -0.06823731      0.21130539      0.00177000      0.29363306     -0.06918387      0.19642263
 spin=   2 iter=   7 nfo=    5 dir=    3     -0.00148043      0.00119504     -0.00256510     -0.05593717     -0.03721108      0.03339048     -0.02463183      0.02971329      0.73326096     -0.67791676
 spin=   2 iter=   8 nfo=    1 dir=    1      0.04588779     -0.02732143     -0.01883940      0.00066820     -0.00224870     -0.00138727      0.00028584      0.00033147     -0.00011113     -0.00004254
 spin=   2 iter=   8 nfo=    2 dir=    1      0.00139742     -0.00035455     -0.00053943     -0.00000799     -0.00948453     -0.02314029     -0.00253822      0.00281746      0.00044900      0.00072713
 spin=   2 iter=   8 nfo=    3 dir=    1      0.00154438     -0.00415422      0.00199000      0.00037277     -0.05289169      0.02262733     -0.00089969     -0.00768175      0.01470305     -0.00659814
 spin=   2 iter=   8 nfo=    4 dir=    1      0.00059394      0.00087269     -0.00172807      0.00000096      0.01668350     -0.03953795     -0.00105987      0.00815113     -0.00182428      0.00402712
 spin=   2 iter=   8 nfo=    5 dir=    1     -0.00014601      0.00007917      0.00004600     -0.00050282     -0.00009589     -0.00143634     -0.02471851      0.00067670      0.01412447      0.01388585
 spin=   2 iter=   8 nfo=    1 dir=    2      0.85354341     -0.50818251     -0.35044685      0.01242823     -0.04182660     -0.02580489      0.00531672      0.00616395     -0.00206701     -0.00079140
 spin=   2 iter=   8 nfo=    2 dir=    2      0.02599363     -0.00659488     -0.01003401     -0.00014857     -0.17641721     -0.43043001     -0.04721295      0.05240735      0.00835168      0.01352529
 spin=   2 iter=   8 nfo=    3 dir=    2      0.02872661     -0.07727161      0.03701550      0.00693384     -0.98382564      0.42088553     -0.01673509     -0.14288676      0.27349025     -0.12273132
 spin=   2 iter=   8 nfo=    4 dir=    2      0.01104781      0.01623242     -0.03214272      0.00001784      0.31032596     -0.73543656     -0.01971442      0.15161538     -0.03393303      0.07490714
 spin=   2 iter=   8 nfo=    5 dir=    2     -0.00271589      0.00147251      0.00085563     -0.00935152     -0.00178332     -0.02671738     -0.45978364      0.01258680      0.26271987      0.25829304
 spin=   2 iter=   8 nfo=    1 dir=    3     -0.69428467      3.63811839     -3.54980621     -0.19809918      0.19210176     -0.13275320     -0.01381626     -0.30540492      0.01823393     -0.03448800
 spin=   2 iter=   8 nfo=    2 dir=    3      0.12571061      0.00344260     -0.01940877      0.00514754      0.42289681     -0.53806446      0.07392461      0.09249070     -0.03239209      0.02895620
 spin=   2 iter=   8 nfo=    3 dir=    3     -0.02121120      0.13843720     -0.06423938      0.00740304      0.38565924     -0.14279957     -0.04006542     -0.09083961      0.43524876     -0.16757608
 spin=   2 iter=   8 nfo=    4 dir=    3     -0.00326428     -0.05452111      0.15698270      0.00599566     -0.12309929      0.26412040      0.00938013     -0.37257064     -0.05358723      0.10646090
 spin=   2 iter=   8 nfo=    5 dir=    3      0.01053191     -0.01389377      0.02119566      0.28824217      0.07514871     -0.06275187      0.21846103     -0.05736946     -1.36408219      1.28675855
 spin=   1 iter=   1 nfo=    1 dir=    1     -0.00062507      0.03863721      0.00000228
 spin=   1 iter=   1 nfo=    2 dir=    1     -0.00000002      0.00000000     -0.00000016
 spin=   1 iter=   1 nfo=    3 dir=    1     -0.00000556      0.01098432      0.00266653
 spin=   1 iter=   1 nfo=    1 dir=    2     -0.00035369      0.02186256      0.00000129
 spin=   1 iter=   1 nfo=    2 dir=    2     -0.00000001      0.00000000     -0.00000009
 spin=   1 iter=   1 nfo=    3 dir=    2     -0.00000315      0.00621539      0.00150883
 spin=   1 iter=   1 nfo=    1 dir=    3     -0.00000998      0.00061705      0.00000004
 spin=   1 iter=   1 nfo=    2 dir=    3     -0.00000000      0.00000000     -0.00000000
 spin=   1 iter=   1 nfo=    3 dir=    3     -0.00000009      0.00017543      0.00004258
 spin=   1 iter=   1 nfo=    1 dir=    1     -0.00062507      0.03863721      0.00000228
 spin=   1 iter=   1 nfo=    2 dir=    1     -0.00000002      0.00000000     -0.00000016
 spin=   1 iter=   1 nfo=    3 dir=    1     -0.00000556      0.01098432      0.00266653
 spin=   1 iter=   1 nfo=    1 dir=    2     -0.00035369      0.02186256      0.00000129
 spin=   1 iter=   1 nfo=    2 dir=    2     -0.00000001      0.00000000     -0.00000009
 spin=   1 iter=   1 nfo=    3 dir=    2     -0.00000315      0.00621539      0.00150883
 spin=   1 iter=   1 nfo=    1 dir=    3     -0.00000998      0.00061705      0.00000004
 spin=   1 iter=   1 nfo=    2 dir=    3     -0.00000000      0.00000000     -0.00000000
 spin=   1 iter=   1 nfo=    3 dir=    3     -0.00000009      0.00017543      0.00004258
