    1    4      0.00747955      0.00000000      0.00249181      0.00249382      0.00249393
    1    2      0.00000000      0.00000000      0.00000000
    1    4      0.00747955      0.00000000      0.00249181      0.00249382      0.00249393
    1    2      0.00000000      0.00000000      0.00000000
    1    4      0.00747955      0.00000000      0.00249181      0.00249382      0.00249393
    1    2      0.00000000      0.00000000      0.00000000
    1    4      0.00747955      0.00000000      0.00249181      0.00249382      0.00249393
    1    2      0.00000000      0.00000000      0.00000000
    1    7      0.02050644      0.00001444      0.00000886      0.00000872      0.00995055      0.00028581      0.00028581      0.00995224
    1    5      0.94043607      0.00122064      0.00126930      0.90632915      0.03073436      0.00088260
    2    5      0.00548765      0.00098996      0.00004802      0.00047914      0.00276042      0.00121011
    3    5      0.00445392      0.00169493      0.00004960      0.00035192      0.00086886      0.00148863
    4    5      5.01882553      3.44321471      0.00265013      0.07402990      0.03239986      1.46653093
    5    5      0.00441409      0.00198554      0.00004981      0.00029282      0.00059065      0.00149528
    6    5      0.00729444      0.00008682      0.00004766      0.00084766      0.00017597      0.00613633
    7    5      0.00245545      0.00208609      0.00005116      0.00001250      0.00006552      0.00024018
    8    5      4.43669279      4.42590821      0.00003369      0.00417962      0.00409057      0.00248071
    1    4 *************** *************** *************** *************** ***************
    1    2      0.01302847      0.01185614      0.00117234
    2    2      0.00287196      0.00235805      0.00051390
    3    2      0.00542061      0.00486412      0.00055649
    4    2      0.00964449      0.00883875      0.00080575
    5    2      0.00617657      0.00506665      0.00110992
    6    2      0.00606846      0.00462347      0.00144499
    7    2      0.00927417      0.00889283      0.00038134
    8    2      0.01301259      0.01184232      0.00117026
    9    2      0.01302512      0.01185322      0.00117190
   10    2      0.00633437      0.00516821      0.00116616
   11    2      0.00633444      0.00516826      0.00116619
   12    2      0.00929630      0.00891636      0.00037994
   13    2      0.00612138      0.00464095      0.00148043
   14    2      0.00633447      0.00516827      0.00116620
   15    2      0.01302848      0.01185614      0.00117234
   16    2      0.01302848      0.01185614      0.00117234
   17    2      0.01302847      0.01185614      0.00117234
   18    2      0.01302847      0.01185614      0.00117234
   19    2      0.01302847      0.01185614      0.00117234
   20    2      0.01302847      0.01185614      0.00117234
   21    2      0.01302847      0.01185614      0.00117234
    1    4 *************** *************** *************** *************** ***************
    1    2      0.01302847      0.01185614      0.00117234
    2    2      0.00287196      0.00235805      0.00051390
    3    2      0.00542061      0.00486412      0.00055649
    4    2      0.00964449      0.00883875      0.00080575
    5    2      0.00617657      0.00506665      0.00110992
    6    2      0.00606846      0.00462347      0.00144499
    7    2      0.00927417      0.00889283      0.00038134
    8    2      0.01301259      0.01184232      0.00117026
    9    2      0.01302512      0.01185322      0.00117190
   10    2      0.00633437      0.00516821      0.00116616
   11    2      0.00633444      0.00516826      0.00116619
   12    2      0.00929630      0.00891636      0.00037994
   13    2      0.00612138      0.00464095      0.00148043
   14    2      0.00633447      0.00516827      0.00116620
   15    2      0.01302848      0.01185614      0.00117234
   16    2      0.01302848      0.01185614      0.00117234
   17    2      0.01302847      0.01185614      0.00117234
   18    2      0.01302847      0.01185614      0.00117234
   19    2      0.01302847      0.01185614      0.00117234
   20    2      0.01302847      0.01185614      0.00117234
   21    2      0.01302847      0.01185614      0.00117234
