 spin=   1 iter=   1  0.15154917E-01     -0.00160757
     -0.00076825      0.00172050
      0.01061877     -0.00152835
      0.00002343     -0.01324995
     -0.03178328      0.00201621
      0.00133291      0.00078882
     -0.00803728
 spin=   1 iter=   1  0.15154917E-01     -0.00160757
     -0.00076825      0.00172050
      0.01061877     -0.00152835
      0.00002343     -0.01324995
     -0.03178328      0.00201621
      0.00133291      0.00078882
     -0.00803728
 spin=   1 iter=   1  0.15154917E-01     -0.00160757
     -0.00076825      0.00172050
      0.01061877     -0.00152835
      0.00002343     -0.01324995
     -0.03178328      0.00201621
      0.00133291      0.00078882
     -0.00803728
 spin=   1 iter=   1  0.15154917E-01     -0.00160757
     -0.00076825      0.00172050
      0.01061877     -0.00152835
      0.00002343     -0.01324995
     -0.03178328      0.00201621
      0.00133291      0.00078882
     -0.00803728
 spin=   1 iter=   1  0.15154917E-01     -0.00160757
     -0.00076825      0.00172050
      0.01061877     -0.00152835
      0.00002343     -0.01324995
     -0.03178328      0.00201621
      0.00133291      0.00078882
     -0.00803728
 spin=   1 iter=   1  0.15154917E-01     -0.00160757
     -0.00076825      0.00172050
      0.01061877     -0.00152835
      0.00002343     -0.01324995
     -0.03178328      0.00201621
      0.00133291      0.00078882
     -0.00803728
 spin=   1 iter=   1  0.15154917E-01     -0.00160757
     -0.00076825      0.00172050
      0.01061877     -0.00152835
      0.00002343     -0.01324995
     -0.03178328      0.00201621
      0.00133291      0.00078882
     -0.00803728
 spin=   1 iter=   1  0.15154917E-01     -0.00160757
     -0.00076825      0.00172050
      0.01061877     -0.00152835
      0.00002343     -0.01324995
     -0.03178328      0.00201621
      0.00133291      0.00078882
     -0.00803728
 spin=   1 iter=   1  0.15154917E-01     -0.00160757
     -0.00076825      0.00172050
      0.01061877     -0.00152835
      0.00002343     -0.01324995
     -0.03178328      0.00201621
      0.00133291      0.00078882
     -0.00803728
 spin=   1 iter=   1  0.15154917E-01     -0.00160757
     -0.00076825      0.00172050
      0.01061877     -0.00152835
      0.00002343     -0.01324995
     -0.03178328      0.00201621
      0.00133291      0.00078882
     -0.00803728
 spin=   1 iter=   1  0.15154917E-01     -0.00160757
     -0.00076825      0.00172050
      0.01061877     -0.00152835
      0.00002343     -0.01324995
     -0.03178328      0.00201621
      0.00133291      0.00078882
     -0.00803728
 spin=   1 iter=   1  0.15154917E-01     -0.00160757
     -0.00076825      0.00172050
      0.01061877     -0.00152835
      0.00002343     -0.01324995
     -0.03178328      0.00201621
      0.00133291      0.00078882
     -0.00803728
 spin=   1 iter=   1  0.15154917E-01     -0.00160757
     -0.00076825      0.00172050
      0.01061877     -0.00152835
      0.00002343     -0.01324995
     -0.03178328      0.00201621
      0.00133291      0.00078882
     -0.00803728
 spin=   1 iter=   1  0.15154917E-01     -0.00160757
     -0.00076825      0.00172050
      0.01061877     -0.00152835
      0.00002343     -0.01324995
     -0.03178328      0.00201621
      0.00133291      0.00078882
     -0.00803728
 spin=   2 iter=   1  0.21607497E-02      0.00213748
     -0.00031623
 spin=   2 iter=   2  0.21607497E-02      0.00213748
     -0.00031623
 spin=   2 iter=   3  0.21607497E-02      0.00213748
     -0.00031623
 spin=   2 iter=   4  0.21607497E-02      0.00213748
     -0.00031623
 spin=   2 iter=   5  0.21607497E-02      0.00213748
     -0.00031623
 spin=   2 iter=   6  0.21607497E-02      0.00213748
     -0.00031623
 spin=   2 iter=   7  0.21607497E-02      0.00213748
     -0.00031623
 spin=   2 iter=   8  0.21607497E-02      0.00213748
     -0.00031623
 spin=   2 iter=   9  0.21607497E-02      0.00213748
     -0.00031623
 spin=   2 iter=  10  0.21607497E-02      0.00213748
     -0.00031623
 spin=   2 iter=  11  0.21607497E-02      0.00213748
     -0.00031623
 spin=   2 iter=  12  0.21607497E-02      0.00213748
     -0.00031623
 spin=   2 iter=  13  0.21607497E-02      0.00213748
     -0.00031623
 spin=   2 iter=  14  0.21607497E-02      0.00213748
     -0.00031623
 spin=   2 iter=  15  0.21607497E-02      0.00213748
     -0.00031623
 spin=   2 iter=  16  0.21607497E-02      0.00213748
     -0.00031623
 spin=   2 iter=  17  0.21607497E-02      0.00213748
     -0.00031623
 spin=   2 iter=  18  0.21607497E-02      0.00213748
     -0.00031623
 spin=   2 iter=  19  0.21607497E-02      0.00213748
     -0.00031623
 spin=   2 iter=  20  0.21607497E-02      0.00213748
     -0.00031623
 spin=   2 iter=  21  0.21607497E-02      0.00213748
     -0.00031623
 spin=   1 iter=   1  0.15154917E-01     -0.00160757
     -0.00076825      0.00172050
      0.01061877     -0.00152835
      0.00002343     -0.01324995
     -0.03178328      0.00201621
      0.00133291      0.00078882
     -0.00803728
 spin=   2 iter=   1  0.21607497E-02      0.00213748
     -0.00031623
 spin=   2 iter=   2  0.21607497E-02      0.00213748
     -0.00031623
 spin=   2 iter=   3  0.21607497E-02      0.00213748
     -0.00031623
 spin=   2 iter=   4  0.21607497E-02      0.00213748
     -0.00031623
 spin=   2 iter=   5  0.21607497E-02      0.00213748
     -0.00031623
 spin=   2 iter=   6  0.21607497E-02      0.00213748
     -0.00031623
 spin=   2 iter=   7  0.21607497E-02      0.00213748
     -0.00031623
 spin=   2 iter=   8  0.21607497E-02      0.00213748
     -0.00031623
 spin=   2 iter=   9  0.21607497E-02      0.00213748
     -0.00031623
 spin=   2 iter=  10  0.21607497E-02      0.00213748
     -0.00031623
 spin=   2 iter=  11  0.21607497E-02      0.00213748
     -0.00031623
 spin=   2 iter=  12  0.21607497E-02      0.00213748
     -0.00031623
 spin=   2 iter=  13  0.21607497E-02      0.00213748
     -0.00031623
 spin=   2 iter=  14  0.21607497E-02      0.00213748
     -0.00031623
 spin=   2 iter=  15  0.21607497E-02      0.00213748
     -0.00031623
 spin=   2 iter=  16  0.21607497E-02      0.00213748
     -0.00031623
 spin=   2 iter=  17  0.21607497E-02      0.00213748
     -0.00031623
 spin=   2 iter=  18  0.21607497E-02      0.00213748
     -0.00031623
 spin=   2 iter=  19  0.21607497E-02      0.00213748
     -0.00031623
 spin=   2 iter=  20  0.21607497E-02      0.00213748
     -0.00031623
 spin=   2 iter=  21  0.21607497E-02      0.00213748
     -0.00031623
