  10
# data nr    16  (natoms,nloc)=    1    9
Ar     0.00000000      0.00000000      0.00000000
X      0.00000000      0.00000000      0.00000000
X      0.27495992      0.06976959     -0.27597091
X     -0.34734463      0.14717211     -0.11967741
X      0.07162191      0.03389745      0.06380707
X     -0.02739365      0.07493044     -0.06312769
X      0.10679635      0.17329280      0.33940357
X     -0.08102903     -0.03080514      0.05324870
X      0.03680075     -0.07802277     -0.05392810
X     -0.03441155     -0.39023435      0.05624472
