  10
# data nr    17  (natoms,nloc)=    1    9
Ar     0.00000000      0.00000000      0.00000000
X     -0.00000000      0.00000000      0.00000000
X     -0.21369228      0.33034773     -0.03913523
X     -0.11019436     -0.19007821      0.32871425
X     -0.06025877      0.07204742      0.03880598
X      0.08765410     -0.00214553      0.05138101
X      0.38350103      0.09317015      0.02391360
X     -0.05961439     -0.23343968     -0.31349262
X      0.01855801      0.02042008     -0.09780835
X     -0.04595335     -0.09032197      0.00762136
