   5
# data nr     1  (natoms,nloc)=    2    3
Li     0.00000000      0.00000000      1.34940198
Li     0.00000000      0.00000000     -1.34940198
X      0.08905600     -0.07169152     -0.16020246
X      0.05619687      0.20125531      0.01269552
X      0.07697204      0.04333678     -0.32198767
   5
# data nr     2  (natoms,nloc)=    2    3
Li     0.00000000      0.00000000      1.34940198
Li     0.00000000      0.00000000     -1.34940198
X      0.09179040     -0.07404520     -0.15026761
X      0.05373878      0.20522482      0.00733807
X      0.07669573      0.04172096     -0.32656507
   5
# data nr     3  (natoms,nloc)=    2    3
Li     0.00000000      0.00000000      1.34940198
Li     0.00000000      0.00000000     -1.34940198
X      0.09181799     -0.07406154     -0.15018280
X      0.05371592      0.20523754      0.00710044
X      0.07669100      0.04172458     -0.32641224
   5
# data nr     4  (natoms,nloc)=    2    3
Li     0.00000000      0.00000000      1.34940198
Li     0.00000000      0.00000000     -1.34940198
X      0.09181826     -0.07406167     -0.15018207
X      0.05371570      0.20523755      0.00709739
X      0.07669095      0.04172469     -0.32640992
   5
# data nr     5  (natoms,nloc)=    2    3
Li     0.00000000      0.00000000      1.34940198
Li     0.00000000      0.00000000     -1.34940198
X      0.09181826     -0.07406167     -0.15018206
X      0.05371570      0.20523755      0.00709735
X      0.07669095      0.04172469     -0.32640990
   5
# data nr     6  (natoms,nloc)=    2    3
Li     0.00000000      0.00000000      1.34940198
Li     0.00000000      0.00000000     -1.34940198
X      0.09181826     -0.07406167     -0.15018206
X      0.05371570      0.20523755      0.00709735
X      0.07669095      0.04172469     -0.32640990
